---,Object Name,Catégorie,Type,Description,HasSecondaryMaterial,HasTertiaryMaterial,Is_Destructible,Image,Mesh_Actor,Blueprint_Actor,Décal Material,Secondary_Material,Tertiary_Material,Destructible_Mesh,Impulse Strength,Destructible_Material
0,Armoire 1,Props,Mesh,,FALSE,FALSE,FALSE,None,StaticMesh'/Game/ASSETS/ENVIRONMENT/PROPS/MESHES/M_Armoires_1.M_Armoires_1',None,None,None,None,None,2.000000,None
1,Armoire 2,Props,Mesh,,FALSE,FALSE,FALSE,None,StaticMesh'/Game/ASSETS/ENVIRONMENT/PROPS/MESHES/M_Armoires_2.M_Armoires_2',None,None,None,None,None,2.000000,None
2,Armoire 3,Props,Mesh,,FALSE,FALSE,FALSE,None,StaticMesh'/Game/ASSETS/ENVIRONMENT/PROPS/MESHES/M_Armoires_3.M_Armoires_3',None,None,None,None,None,2.000000,None
3,Assemblage Fleur 1,Vegetation,BluePrint,,FALSE,FALSE,FALSE,Texture2D'/Game/ASSETS/Tools/Icons/EI_BP_Assemb_Fleur_1.EI_BP_Assemb_Fleur_1',None,BlueprintGeneratedClass'/Game/ASSETS/ENVIRONMENT/Foliage/Blueprint/BP_AssembFleur_1.BP_AssembFleur_1_C',None,None,None,None,2.000000,None
4,Assemblage Fleur 2,Vegetation,BluePrint,,FALSE,FALSE,FALSE,Texture2D'/Game/ASSETS/Tools/Icons/EI_BP_Assemb_Fleur_2.EI_BP_Assemb_Fleur_2',None,BlueprintGeneratedClass'/Game/ASSETS/ENVIRONMENT/Foliage/Blueprint/BP_AssembFleur_2.BP_AssembFleur_2_C',None,None,None,None,2.000000,None
5,Assemblage Fleur 3,Vegetation,BluePrint,,FALSE,FALSE,FALSE,Texture2D'/Game/ASSETS/Tools/Icons/EI_BP_Assemb_Fleur_3.EI_BP_Assemb_Fleur_3',None,BlueprintGeneratedClass'/Game/ASSETS/ENVIRONMENT/Foliage/Blueprint/BP_AssembFleur_3.BP_AssembFleur_3_C',None,None,None,None,2.000000,None
6,Assemblage Fleur Mix 1,Vegetation,BluePrint,,FALSE,FALSE,FALSE,Texture2D'/Game/ASSETS/Tools/Icons/EI_BP_Assemb_Fleurs_Mix_1.EI_BP_Assemb_Fleurs_Mix_1',None,BlueprintGeneratedClass'/Game/ASSETS/ENVIRONMENT/Foliage/Blueprint/BP_AssembFleurMix_1.BP_AssembFleurMix_1_C',None,None,None,None,2.000000,None
7,Assemblage Fleur Mix 2,Vegetation,BluePrint,,FALSE,FALSE,FALSE,Texture2D'/Game/ASSETS/Tools/Icons/EI_BP_Assemb_Fleurs_Mix_2.EI_BP_Assemb_Fleurs_Mix_2',None,BlueprintGeneratedClass'/Game/ASSETS/ENVIRONMENT/Foliage/Blueprint/BP_AssembFleurMix_2.BP_AssembFleurMix_2_C',None,None,None,None,2.000000,None
8,Assemblage Fleurs 1,Vegetation,BluePrint,,FALSE,FALSE,FALSE,Texture2D'/Game/ASSETS/Tools/Icons/EI_BP_Assemb_Fleurs_1.EI_BP_Assemb_Fleurs_1',None,BlueprintGeneratedClass'/Game/ASSETS/ENVIRONMENT/Foliage/Blueprint/BR_AssembFleurs_1.BR_AssembFleurs_1_C',None,None,None,None,2.000000,None
9,Assemblage Fleurs 2,Vegetation,BluePrint,,FALSE,FALSE,FALSE,Texture2D'/Game/ASSETS/Tools/Icons/EI_BP_Assemb_Fleurs_2.EI_BP_Assemb_Fleurs_2',None,BlueprintGeneratedClass'/Game/ASSETS/ENVIRONMENT/Foliage/Blueprint/BR_AssembFleurs_2.BR_AssembFleurs_2_C',None,None,None,None,2.000000,None
10,Assemblage Nenuphare Clean 1,Vegetation,BluePrint,,FALSE,FALSE,FALSE,Texture2D'/Game/ASSETS/Tools/Icons/EI_BP_Assemb_Nenu_Clean_1.EI_BP_Assemb_Nenu_Clean_1',None,BlueprintGeneratedClass'/Game/ASSETS/ENVIRONMENT/Foliage/Blueprint/BP_AssembNenu_Clean1.BP_AssembNenu_Clean1_C',None,None,None,None,2.000000,None
11,Assemblage Nenuphare Clean 2,Vegetation,BluePrint,,FALSE,FALSE,FALSE,Texture2D'/Game/ASSETS/Tools/Icons/EI_BP_Assemb_Nenu_Clean_2.EI_BP_Assemb_Nenu_Clean_2',None,BlueprintGeneratedClass'/Game/ASSETS/ENVIRONMENT/Foliage/Blueprint/BP_AssembNenu_Clean2.BP_AssembNenu_Clean2_C',None,None,None,None,2.000000,None
12,Assemblage Nenuphare Dirt 1,Vegetation,BluePrint,,FALSE,FALSE,FALSE,Texture2D'/Game/ASSETS/Tools/Icons/EI_BP_Assemb_Nenu_Dirt_1.EI_BP_Assemb_Nenu_Dirt_1',None,BlueprintGeneratedClass'/Game/ASSETS/ENVIRONMENT/Foliage/Blueprint/BP_AssembNenu_Dirt1.BP_AssembNenu_Dirt1_C',None,None,None,None,2.000000,None
13,Assemblage Nenuphare Dirt 2,Vegetation,BluePrint,,FALSE,FALSE,FALSE,Texture2D'/Game/ASSETS/Tools/Icons/EI_BP_Assemb_Nenu_Dirt_2.EI_BP_Assemb_Nenu_Dirt_2',None,BlueprintGeneratedClass'/Game/ASSETS/ENVIRONMENT/Foliage/Blueprint/BP_AssembNenu_Dirt2.BP_AssembNenu_Dirt2_C',None,None,None,None,2.000000,None
14,Assemblage Nenuphare Mid 1,Vegetation,BluePrint,,FALSE,FALSE,FALSE,Texture2D'/Game/ASSETS/Tools/Icons/EI_BP_Assemb_Nenu_Mid_1.EI_BP_Assemb_Nenu_Mid_1',None,BlueprintGeneratedClass'/Game/ASSETS/ENVIRONMENT/Foliage/Blueprint/BP_AssembNenu_Mid1.BP_AssembNenu_Mid1_C',None,None,None,None,2.000000,None
15,Assemblage Nenuphare Mid 2,Vegetation,BluePrint,,FALSE,FALSE,FALSE,Texture2D'/Game/ASSETS/Tools/Icons/EI_BP_Assemb_Nenu_Mid_2.EI_BP_Assemb_Nenu_Mid_2',None,BlueprintGeneratedClass'/Game/ASSETS/ENVIRONMENT/Foliage/Blueprint/BP_AssembNenu_Mid2.BP_AssembNenu_Mid2_C',None,None,None,None,2.000000,None
16,Assemblage Nenuphare Mix,Vegetation,BluePrint,,FALSE,FALSE,FALSE,Texture2D'/Game/ASSETS/Tools/Icons/EI_BP_Assemb_Nenu_Mix.EI_BP_Assemb_Nenu_Mix',None,BlueprintGeneratedClass'/Game/ASSETS/ENVIRONMENT/Foliage/Blueprint/BP_AssembNenu_Mix.BP_AssembNenu_Mix_C',None,None,None,None,2.000000,None
17,Assemblage Papyrus 1,Vegetation,BluePrint,,FALSE,FALSE,FALSE,Texture2D'/Game/ASSETS/Tools/Icons/EI_BP_Assemb_Papyrus_1.EI_BP_Assemb_Papyrus_1',None,BlueprintGeneratedClass'/Game/ASSETS/ENVIRONMENT/Foliage/Blueprint/BP_Assemb_Papyrus1.BP_Assemb_Papyrus1_C',None,None,None,None,2.000000,None
18,Assemblage Papyrus 2,Vegetation,BluePrint,,FALSE,FALSE,FALSE,Texture2D'/Game/ASSETS/Tools/Icons/EI_BP_Assemb_Papyrus_2.EI_BP_Assemb_Papyrus_2',None,BlueprintGeneratedClass'/Game/ASSETS/ENVIRONMENT/Foliage/Blueprint/BP_Assemb_Papyrus2.BP_Assemb_Papyrus2_C',None,None,None,None,2.000000,None
19,Assemblage Ratelier 1,Props,BluePrint,,FALSE,FALSE,FALSE,Texture2D'/Game/ASSETS/Tools/Icons/EI_BP_Ratelier1.EI_BP_Ratelier1',None,BlueprintGeneratedClass'/Game/ASSETS/ENVIRONMENT/PROPS/PROPS_ACTORS/BluePrint/BP_Ratelier_1.BP_Ratelier_1_C',None,None,None,None,2.000000,None
20,Assemblage Ratelier 2,Props,BluePrint,,FALSE,FALSE,FALSE,Texture2D'/Game/ASSETS/Tools/Icons/EI_BP_Ratelier2.EI_BP_Ratelier2',None,BlueprintGeneratedClass'/Game/ASSETS/ENVIRONMENT/PROPS/PROPS_ACTORS/BluePrint/BP_Ratelier_2.BP_Ratelier_2_C',None,None,None,None,2.000000,None
21,Assemblage Ratelier 3,Props,BluePrint,,FALSE,FALSE,FALSE,Texture2D'/Game/ASSETS/Tools/Icons/EI_BP_Ratelier3.EI_BP_Ratelier3',None,BlueprintGeneratedClass'/Game/ASSETS/ENVIRONMENT/PROPS/PROPS_ACTORS/BluePrint/BP_Ratelier_3.BP_Ratelier_3_C',None,None,None,None,2.000000,None
22,Assemblage Ratelier 4,Props,BluePrint,,FALSE,FALSE,FALSE,Texture2D'/Game/ASSETS/Tools/Icons/EI_BP_Ratelier4.EI_BP_Ratelier4',None,BlueprintGeneratedClass'/Game/ASSETS/ENVIRONMENT/PROPS/PROPS_ACTORS/BluePrint/BP_Ratelier_4.BP_Ratelier_4_C',None,None,None,None,2.000000,None
23,Assemblage Shabits 1,Props,BluePrint,,FALSE,FALSE,FALSE,Texture2D'/Game/ASSETS/Tools/Icons/EI_BP_Pots_Shabtis_1.EI_BP_Pots_Shabtis_1',None,BlueprintGeneratedClass'/Game/ASSETS/ENVIRONMENT/PROPS/PROPS_ACTORS/BluePrint/BP_Pots_Shabtis_1.BP_Pots_Shabtis_1_C',None,None,None,None,2.000000,None
24,Assemblage Shabits 2,Props,BluePrint,,FALSE,FALSE,FALSE,Texture2D'/Game/ASSETS/Tools/Icons/EI_BP_Shabits2.EI_BP_Shabits2',None,BlueprintGeneratedClass'/Game/ASSETS/ENVIRONMENT/PROPS/PROPS_ACTORS/BluePrint/BP_Shabits_2.BP_Shabits_2_C',None,None,None,None,2.000000,None
25,Assemblage Shabits 3,Props,BluePrint,,FALSE,FALSE,FALSE,Texture2D'/Game/ASSETS/Tools/Icons/EI_BP_Shabits3.EI_BP_Shabits3',None,BlueprintGeneratedClass'/Game/ASSETS/ENVIRONMENT/PROPS/PROPS_ACTORS/BluePrint/BP_Shabits_3.BP_Shabits_3_C',None,None,None,None,2.000000,None
26,Assemblage Shabits 4,Props,BluePrint,,FALSE,FALSE,FALSE,Texture2D'/Game/ASSETS/Tools/Icons/EI_BP_Shabits4.EI_BP_Shabits4',None,BlueprintGeneratedClass'/Game/ASSETS/ENVIRONMENT/PROPS/PROPS_ACTORS/BluePrint/BP_Shabits_4.BP_Shabits_4_C',None,None,None,None,2.000000,None
27,Assemblage Shabits 5,Props,BluePrint,,FALSE,FALSE,FALSE,Texture2D'/Game/ASSETS/Tools/Icons/EI_BP_Shabits5.EI_BP_Shabits5',None,BlueprintGeneratedClass'/Game/ASSETS/ENVIRONMENT/PROPS/PROPS_ACTORS/BluePrint/BP_Shabits_5.BP_Shabits_5_C',None,None,None,None,2.000000,None
28,Big Blob Ground 1,Ground Surface,Mesh,,FALSE,FALSE,FALSE,Texture2D'/Game/ASSETS/Tools/Icons/EI_M_Big_Blob_big_ground_1.EI_M_Big_Blob_big_ground_1',StaticMesh'/Game/ASSETS/ENVIRONMENT/PROPS/MESHES/M_Blob_big_ground_1.M_Blob_big_ground_1',None,None,None,None,None,2.000000,None
29,Big Blob Ground 2,Ground Surface,Mesh,,FALSE,FALSE,FALSE,Texture2D'/Game/ASSETS/Tools/Icons/EI_M_Big_Blob_big_ground_2.EI_M_Big_Blob_big_ground_2',StaticMesh'/Game/ASSETS/ENVIRONMENT/PROPS/MESHES/M_Blob_big_ground_2.M_Blob_big_ground_2',None,None,None,None,None,2.000000,None
30,Bloc Couvercle 01,Props,Mesh,,FALSE,FALSE,FALSE,Texture2D'/Game/ASSETS/Tools/Icons/EI_M_Bloc_couvercle_01.EI_M_Bloc_couvercle_01',StaticMesh'/Game/ASSETS/ENVIRONMENT/PROPS/MESHES/M_bloc_couvercle_01.M_bloc_couvercle_01',None,None,None,None,None,2.000000,None
31,Bloc Couvercle 02,Props,Mesh,,FALSE,FALSE,FALSE,Texture2D'/Game/ASSETS/Tools/Icons/EI_M_Bloc_couvercle_02.EI_M_Bloc_couvercle_02',StaticMesh'/Game/ASSETS/ENVIRONMENT/PROPS/MESHES/M_bloc_couvercle_02.M_bloc_couvercle_02',None,None,None,None,None,2.000000,None
32,Bloc Couvercle 03,Props,Mesh,,FALSE,FALSE,FALSE,Texture2D'/Game/ASSETS/Tools/Icons/EI_M_Bloc_couvercle_03.EI_M_Bloc_couvercle_03',StaticMesh'/Game/ASSETS/ENVIRONMENT/PROPS/MESHES/M_bloc_couvercle_03.M_bloc_couvercle_03',None,None,None,None,None,2.000000,None
33,Bloc Funeraire 01,Props,Mesh,,FALSE,FALSE,FALSE,Texture2D'/Game/ASSETS/Tools/Icons/EI_M_Bloc_Funeraire_01.EI_M_Bloc_Funeraire_01',StaticMesh'/Game/ASSETS/ENVIRONMENT/PROPS/MESHES/M_bloc_funeraire_01.M_bloc_funeraire_01',None,None,None,None,None,2.000000,None
34,Bloc Funeraire 01,Props,BluePrint,,FALSE,FALSE,FALSE,Texture2D'/Game/ASSETS/Tools/Icons/EI_BP_Bloc_Funeraire_01.EI_BP_Bloc_Funeraire_01',None,BlueprintGeneratedClass'/Game/ASSETS/ENVIRONMENT/PROPS/PROPS_ACTORS/BluePrint/BP_BlocFuneraire_1.BP_BlocFuneraire_1_C',None,None,None,None,2.000000,None
35,Bloc Funeraire 02,Props,Mesh,,FALSE,FALSE,FALSE,Texture2D'/Game/ASSETS/Tools/Icons/EI_M_Bloc_Funeraire_02.EI_M_Bloc_Funeraire_02',StaticMesh'/Game/ASSETS/ENVIRONMENT/PROPS/MESHES/M_bloc_funeraire_02.M_bloc_funeraire_02',None,None,None,None,None,2.000000,None
36,Bloc Funeraire 02,Props,BluePrint,,FALSE,FALSE,FALSE,Texture2D'/Game/ASSETS/Tools/Icons/EI_BP_Block_Funeraire_02.EI_BP_Block_Funeraire_02',None,BlueprintGeneratedClass'/Game/ASSETS/ENVIRONMENT/PROPS/PROPS_ACTORS/BluePrint/BP_BlocFuneraire_2.BP_BlocFuneraire_2_C',None,None,None,None,2.000000,None
37,Bloc Funeraire 03,Props,Mesh,,FALSE,FALSE,FALSE,Texture2D'/Game/ASSETS/Tools/Icons/EI_M_Bloc_Funeraire_03.EI_M_Bloc_Funeraire_03',StaticMesh'/Game/ASSETS/ENVIRONMENT/PROPS/MESHES/M_bloc_funeraire_03.M_bloc_funeraire_03',None,None,None,None,None,2.000000,None
38,Block 01,Block,Mesh,,FALSE,FALSE,FALSE,Texture2D'/Game/ASSETS/Tools/Icons/EI_M_Block_01.EI_M_Block_01',StaticMesh'/Game/ASSETS/ENVIRONMENT/PROPS/MESHES/M_Block_01.M_Block_01',None,None,None,None,None,2.000000,None
39,Block 02,Block,Mesh,,FALSE,FALSE,FALSE,Texture2D'/Game/ASSETS/Tools/Icons/EI_M_Block_02.EI_M_Block_02',StaticMesh'/Game/ASSETS/ENVIRONMENT/PROPS/MESHES/M_Block_02.M_Block_02',None,None,None,None,None,2.000000,None
40,Block 03,Block,Mesh,,FALSE,FALSE,FALSE,Texture2D'/Game/ASSETS/Tools/Icons/EI_M_Block_03.EI_M_Block_03',StaticMesh'/Game/ASSETS/ENVIRONMENT/PROPS/MESHES/M_Block_03.M_Block_03',None,None,None,None,None,2.000000,None
41,Block 04,Block,Mesh,,FALSE,FALSE,FALSE,Texture2D'/Game/ASSETS/Tools/Icons/EI_M_Block_04.EI_M_Block_04',StaticMesh'/Game/ASSETS/ENVIRONMENT/PROPS/MESHES/M_Block_04.M_Block_04',None,None,None,None,None,2.000000,None
42,Block 05,Block,Mesh,,FALSE,FALSE,FALSE,Texture2D'/Game/ASSETS/Tools/Icons/EI_M_Block_05.EI_M_Block_05',StaticMesh'/Game/ASSETS/ENVIRONMENT/PROPS/MESHES/M_Block_05.M_Block_05',None,None,None,None,None,2.000000,None
43,Block 06,Block,Mesh,,FALSE,FALSE,FALSE,Texture2D'/Game/ASSETS/Tools/Icons/EI_M_Block_06.EI_M_Block_06',StaticMesh'/Game/ASSETS/ENVIRONMENT/PROPS/MESHES/M_Block_06.M_Block_06',None,None,None,None,None,2.000000,None
44,Block 07,Block,Mesh,,FALSE,FALSE,FALSE,Texture2D'/Game/ASSETS/Tools/Icons/EI_M_Block_07.EI_M_Block_07',StaticMesh'/Game/ASSETS/ENVIRONMENT/PROPS/MESHES/M_Block_07.M_Block_07',None,None,None,None,None,2.000000,None
45,Block 08,Block,Mesh,,FALSE,FALSE,FALSE,Texture2D'/Game/ASSETS/Tools/Icons/EI_M_Block_08.EI_M_Block_08',StaticMesh'/Game/ASSETS/ENVIRONMENT/PROPS/MESHES/M_Block_08.M_Block_08',None,None,None,None,None,2.000000,None
46,Block 09,Block,Mesh,,FALSE,FALSE,FALSE,Texture2D'/Game/ASSETS/Tools/Icons/EI_M_Block_09.EI_M_Block_09',StaticMesh'/Game/ASSETS/ENVIRONMENT/PROPS/MESHES/M_Block_09.M_Block_09',None,None,None,None,None,2.000000,None
47,Block Funeraire 03 BP,Props,BluePrint,,FALSE,FALSE,FALSE,Texture2D'/Game/ASSETS/Tools/Icons/EI_BP_Block_Funeraire_03.EI_BP_Block_Funeraire_03',None,BlueprintGeneratedClass'/Game/ASSETS/ENVIRONMENT/PROPS/PROPS_ACTORS/BluePrint/BP_BlocFuneraire_3.BP_BlocFuneraire_3_C',None,None,None,None,2.000000,None
48,Block Funerarie 03 BP,Props,BluePrint,,FALSE,FALSE,FALSE,Texture2D'/Game/ASSETS/Tools/Icons/EI_BP_Block_Funeraire_04.EI_BP_Block_Funeraire_04',None,BlueprintGeneratedClass'/Game/ASSETS/ENVIRONMENT/PROPS/PROPS_ACTORS/BluePrint/BP_BlocFuneraire_4.BP_BlocFuneraire_4_C',None,None,None,None,2.000000,None
49,Bougie 01,Props,Mesh,,FALSE,FALSE,FALSE,Texture2D'/Game/ASSETS/Tools/Icons/EI_M_Bougie_01.EI_M_Bougie_01',StaticMesh'/Game/ASSETS/ENVIRONMENT/PROPS/MESHES/M_Bougie_01.M_Bougie_01',None,None,None,None,None,2.000000,None
50,Bougie 02,Props,Mesh,,FALSE,FALSE,FALSE,Texture2D'/Game/ASSETS/Tools/Icons/EI_M_Bougie_02.EI_M_Bougie_02',StaticMesh'/Game/ASSETS/ENVIRONMENT/PROPS/MESHES/M_Bougie_02.M_Bougie_02',None,None,None,None,None,2.000000,None
51,Bougie 03,Props,Mesh,,FALSE,FALSE,FALSE,Texture2D'/Game/ASSETS/Tools/Icons/EI_M_Bougie_03.EI_M_Bougie_03',StaticMesh'/Game/ASSETS/ENVIRONMENT/PROPS/MESHES/M_Bougie_03.M_Bougie_03',None,None,None,None,None,2.000000,None
52,Bougie 04,Props,Mesh,,FALSE,FALSE,FALSE,Texture2D'/Game/ASSETS/Tools/Icons/EI_M_Bougie_04.EI_M_Bougie_04',StaticMesh'/Game/ASSETS/ENVIRONMENT/PROPS/MESHES/M_Bougie_04.M_Bougie_04',None,None,None,None,None,2.000000,None
53,Brasero 1,Props,Mesh,,TRUE,FALSE,FALSE,Texture2D'/Game/ASSETS/Tools/Icons/EI_M_Brasero_1.EI_M_Brasero_1',StaticMesh'/Game/ASSETS/ENVIRONMENT/PROPS/MESHES/M_Brasero_1.M_Brasero_1',None,None,MaterialInstanceConstant'/Game/ASSETS/ENVIRONMENT/PROPS/MATERIALS/MI_Brasero_V2.MI_Brasero_V2',None,None,2.000000,None
54,Brasero 2,Props,Mesh,,TRUE,FALSE,FALSE,Texture2D'/Game/ASSETS/Tools/Icons/EI_M_Brasero_2.EI_M_Brasero_2',StaticMesh'/Game/ASSETS/ENVIRONMENT/PROPS/MESHES/M_Brasero_2.M_Brasero_2',None,None,MaterialInstanceConstant'/Game/ASSETS/ENVIRONMENT/PROPS/MATERIALS/MI_Brasero_V2.MI_Brasero_V2',None,None,2.000000,None
55,Brasero 3,Props,Mesh,,TRUE,FALSE,FALSE,Texture2D'/Game/ASSETS/Tools/Icons/EI_M_Brasero_3.EI_M_Brasero_3',StaticMesh'/Game/ASSETS/ENVIRONMENT/PROPS/MESHES/M_Brasero_3.M_Brasero_3',None,None,MaterialInstanceConstant'/Game/ASSETS/ENVIRONMENT/PROPS/MATERIALS/MI_Brasero_V2.MI_Brasero_V2',None,None,2.000000,None
56,Brasero 4,Props,Mesh,,TRUE,FALSE,FALSE,Texture2D'/Game/ASSETS/Tools/Icons/EI_M_Brasero_4.EI_M_Brasero_4',StaticMesh'/Game/ASSETS/ENVIRONMENT/PROPS/MESHES/M_Brasero_4.M_Brasero_4',None,None,MaterialInstanceConstant'/Game/ASSETS/ENVIRONMENT/PROPS/MATERIALS/MI_Brasero_V2.MI_Brasero_V2',None,None,2.000000,None
57,Brasero 5,Props,Mesh,,TRUE,FALSE,FALSE,Texture2D'/Game/ASSETS/Tools/Icons/EI_M_Brasero_5.EI_M_Brasero_5',StaticMesh'/Game/ASSETS/ENVIRONMENT/PROPS/MESHES/M_Brasero_Cuve.M_Brasero_Cuve',None,None,MaterialInstanceConstant'/Game/ASSETS/ENVIRONMENT/PROPS/MATERIALS/MI_Brasero_V2.MI_Brasero_V2',None,None,2.000000,None
58,Brasero 6,Props,Mesh,,TRUE,FALSE,FALSE,Texture2D'/Game/ASSETS/Tools/Icons/EI_M_Brasero_6.EI_M_Brasero_6',StaticMesh'/Game/ASSETS/ENVIRONMENT/PROPS/MESHES/M_Brasero_Socle.M_Brasero_Socle',None,None,MaterialInstanceConstant'/Game/ASSETS/ENVIRONMENT/PROPS/MATERIALS/MI_Brasero_V2.MI_Brasero_V2',None,None,2.000000,None
59,Cailloux 1 BP,Rocks,BluePrint,,FALSE,FALSE,FALSE,Texture2D'/Game/ASSETS/Tools/Icons/EI_BP_Cailloux_1.EI_BP_Cailloux_1',None,BlueprintGeneratedClass'/Game/ASSETS/ENVIRONMENT/PROPS/PROPS_ACTORS/BluePrint/BP_Cailloux_1.BP_Cailloux_1_C',None,None,None,None,2.000000,None
60,Cailloux 2 BP,Rocks,BluePrint,,FALSE,FALSE,FALSE,Texture2D'/Game/ASSETS/Tools/Icons/EI_BP_Cailloux_2.EI_BP_Cailloux_2',None,BlueprintGeneratedClass'/Game/ASSETS/ENVIRONMENT/PROPS/PROPS_ACTORS/BluePrint/BP_Cailloux_2.BP_Cailloux_2_C',None,None,None,None,2.000000,None
61,Cailloux 3 BP,Rocks,BluePrint,,FALSE,FALSE,FALSE,Texture2D'/Game/ASSETS/Tools/Icons/EI_BP_Cailloux_3.EI_BP_Cailloux_3',None,BlueprintGeneratedClass'/Game/ASSETS/ENVIRONMENT/PROPS/PROPS_ACTORS/BluePrint/BP_Cailloux_3.BP_Cailloux_3_C',None,None,None,None,2.000000,None
62,Cailloux 4 BP,Rocks,BluePrint,,FALSE,FALSE,FALSE,Texture2D'/Game/ASSETS/Tools/Icons/EI_BP_Cailloux_4.EI_BP_Cailloux_4',None,BlueprintGeneratedClass'/Game/ASSETS/ENVIRONMENT/PROPS/PROPS_ACTORS/BluePrint/BP_Cailloux_4.BP_Cailloux_4_C',None,None,None,None,2.000000,None
63,Canope + Bougie 02,Props,BluePrint,,FALSE,FALSE,FALSE,Texture2D'/Game/ASSETS/Tools/Icons/EI_BP_Canope_Bougies_02.EI_BP_Canope_Bougies_02',None,BlueprintGeneratedClass'/Game/ASSETS/ENVIRONMENT/PROPS/PROPS_ACTORS/BluePrint/BP_Canope_Bougies_2.BP_Canope_Bougies_2_C',None,None,None,None,2.000000,None
64,Canope + Bougies 01,Props,BluePrint,,FALSE,FALSE,FALSE,Texture2D'/Game/ASSETS/Tools/Icons/EI_BP_Canope_Bougies_01.EI_BP_Canope_Bougies_01',None,BlueprintGeneratedClass'/Game/ASSETS/ENVIRONMENT/PROPS/PROPS_ACTORS/BluePrint/BP_Canope_Bougies_1.BP_Canope_Bougies_1_C',None,None,None,None,2.000000,None
65,Canope 01,Props,Mesh,,FALSE,FALSE,FALSE,Texture2D'/Game/ASSETS/Tools/Icons/EI_M_Canope_01.EI_M_Canope_01',StaticMesh'/Game/ASSETS/ENVIRONMENT/PROPS/MESHES/M_Canope_01.M_Canope_01',None,None,None,None,None,2.000000,None
66,Canope 02,Props,Mesh,,FALSE,FALSE,FALSE,Texture2D'/Game/ASSETS/Tools/Icons/EI_M_Canope_02.EI_M_Canope_02',StaticMesh'/Game/ASSETS/ENVIRONMENT/PROPS/MESHES/M_Canope_02.M_Canope_02',None,None,None,None,None,2.000000,None
67,Canope 03,Props,Mesh,,FALSE,FALSE,FALSE,Texture2D'/Game/ASSETS/Tools/Icons/EI_M_Canope_03.EI_M_Canope_03',StaticMesh'/Game/ASSETS/ENVIRONMENT/PROPS/MESHES/M_Canope_03.M_Canope_03',None,None,None,None,None,2.000000,None
68,Canope 04,Props,Mesh,,FALSE,FALSE,FALSE,Texture2D'/Game/ASSETS/Tools/Icons/EI_M_Canope_04.EI_M_Canope_04',StaticMesh'/Game/ASSETS/ENVIRONMENT/PROPS/MESHES/M_Canope_04.M_Canope_04',None,None,None,None,None,2.000000,None
73,Canope 05,Props,Mesh,,FALSE,FALSE,FALSE,Texture2D'/Game/ASSETS/Tools/Icons/EI_M_Canope_05.EI_M_Canope_05',StaticMesh'/Game/ASSETS/ENVIRONMENT/PROPS/MESHES/M_Canope_05.M_Canope_05',None,None,None,None,None,2.000000,None
74,Canope 06,Props,Mesh,,FALSE,FALSE,FALSE,Texture2D'/Game/ASSETS/Tools/Icons/EI_M_Canope_06.EI_M_Canope_06',StaticMesh'/Game/ASSETS/ENVIRONMENT/PROPS/MESHES/M_Canope_06.M_Canope_06',None,None,None,None,None,2.000000,None
75,Canope 07,Props,Mesh,,FALSE,FALSE,FALSE,Texture2D'/Game/ASSETS/Tools/Icons/EI_M_Canope_07.EI_M_Canope_07',StaticMesh'/Game/ASSETS/ENVIRONMENT/PROPS/MESHES/M_Canope_07.M_Canope_07',None,None,None,None,None,2.000000,None
77,Canope 08,Props,Mesh,,FALSE,FALSE,FALSE,Texture2D'/Game/ASSETS/Tools/Icons/EI_M_Canope_08.EI_M_Canope_08',StaticMesh'/Game/ASSETS/ENVIRONMENT/PROPS/MESHES/M_Canope_08.M_Canope_08',None,None,None,None,None,2.000000,None
78,Canope 2,Props,BluePrint,,FALSE,FALSE,FALSE,Texture2D'/Game/ASSETS/Tools/Icons/EI_BP_Canopes_2.EI_BP_Canopes_2',None,BlueprintGeneratedClass'/Game/ASSETS/ENVIRONMENT/PROPS/PROPS_ACTORS/BluePrint/BP_Canopes_2.BP_Canopes_2_C',None,None,None,None,2.000000,None
79,Canope 3,Props,BluePrint,,FALSE,FALSE,FALSE,Texture2D'/Game/ASSETS/Tools/Icons/EI_BP_Canopes_3.EI_BP_Canopes_3',None,BlueprintGeneratedClass'/Game/ASSETS/ENVIRONMENT/PROPS/PROPS_ACTORS/BluePrint/BP_Canopes_3.BP_Canopes_3_C',None,None,None,None,2.000000,None
82,Canopes 1,Props,BluePrint,,FALSE,FALSE,FALSE,Texture2D'/Game/ASSETS/Tools/Icons/EI_BP_Canopes_1.EI_BP_Canopes_1',None,BlueprintGeneratedClass'/Game/ASSETS/ENVIRONMENT/PROPS/PROPS_ACTORS/BluePrint/BP_Canopes_1.BP_Canopes_1_C',None,None,None,None,2.000000,None
85,Chaine En spline,Props Actor,BluePrint,Chaine non dynamique que vous pouvez éditer avec un spline ainsi que la distance de la chaine avec la variable Section (85 de base).,FALSE,FALSE,FALSE,Texture2D'/Game/ASSETS/Tools/Icons/EI_BP_Spline_Chaine.EI_BP_Spline_Chaine',None,None,None,None,None,None,2.000000,None
86,Chaise 1,Props,Mesh,,FALSE,FALSE,FALSE,None,StaticMesh'/Game/ASSETS/ENVIRONMENT/PROPS/MESHES/M_Chaises_01.M_Chaises_01',None,None,None,None,None,2.000000,None
87,Chaise 2,Props,Mesh,,FALSE,FALSE,FALSE,None,StaticMesh'/Game/ASSETS/ENVIRONMENT/PROPS/MESHES/M_Chaises_02.M_Chaises_02',None,None,None,None,None,2.000000,None
88,Chaise 3,Props,Mesh,,FALSE,FALSE,FALSE,None,StaticMesh'/Game/ASSETS/ENVIRONMENT/PROPS/MESHES/M_Chaises_03.M_Chaises_03',None,None,None,None,None,2.000000,None
89,Chaise 4,Props,Mesh,,FALSE,FALSE,FALSE,None,StaticMesh'/Game/ASSETS/ENVIRONMENT/PROPS/MESHES/M_Chaises_04.M_Chaises_04',None,None,None,None,None,2.000000,None
90,CheckPoint,Game Object,BluePrint,,FALSE,FALSE,FALSE,None,None,BlueprintGeneratedClass'/Game/Dev/StoryMode/Actor/Actor/Respawn/Checkpoint_Trigger.Checkpoint_Trigger_C',None,None,None,None,2.000000,None
91,Crane 01,Props,Mesh,,FALSE,FALSE,FALSE,Texture2D'/Game/ASSETS/Tools/Icons/EI_M_Crane_01.EI_M_Crane_01',StaticMesh'/Game/ASSETS/ENVIRONMENT/PROPS/MESHES/M_Crane_01.M_Crane_01',None,None,None,None,None,2.000000,None
92,Crane 02,Props,Mesh,,FALSE,FALSE,FALSE,Texture2D'/Game/ASSETS/Tools/Icons/EI_M_Crane_02.EI_M_Crane_02',StaticMesh'/Game/ASSETS/ENVIRONMENT/PROPS/MESHES/M_Crane_02.M_Crane_02',None,None,None,None,None,2.000000,None
93,Crane 03,Props,Mesh,,FALSE,FALSE,FALSE,Texture2D'/Game/ASSETS/Tools/Icons/EI_M_Crane_03.EI_M_Crane_03',StaticMesh'/Game/ASSETS/ENVIRONMENT/PROPS/MESHES/M_Crane_03.M_Crane_03',None,None,None,None,None,2.000000,None
94,Crane 04,Props,Mesh,,FALSE,FALSE,FALSE,Texture2D'/Game/ASSETS/Tools/Icons/EI_M_Crane_04.EI_M_Crane_04',StaticMesh'/Game/ASSETS/ENVIRONMENT/PROPS/MESHES/M_Crane_04.M_Crane_04',None,None,None,None,None,2.000000,None
95,Cranes + Bougies,Props,BluePrint,,FALSE,FALSE,FALSE,Texture2D'/Game/ASSETS/Tools/Icons/EI_BP_Cranes_bougies_01.EI_BP_Cranes_bougies_01',None,BlueprintGeneratedClass'/Game/ASSETS/ENVIRONMENT/PROPS/PROPS_ACTORS/BluePrint/BP_Cranes_bougies_01.BP_Cranes_bougies_01_C',None,None,None,None,2.000000,None
96,Cranes + Bougies BP,Props,BluePrint,,FALSE,FALSE,FALSE,Texture2D'/Game/ASSETS/Tools/Icons/EI_BP_Cranes_bougies_01.EI_BP_Cranes_bougies_01',None,BlueprintGeneratedClass'/Game/ASSETS/ENVIRONMENT/PROPS/PROPS_ACTORS/BluePrint/BP_Cranes_bougies_01.BP_Cranes_bougies_01_C',None,None,None,None,2.000000,None
97,Cranes 02,Props,BluePrint,,FALSE,FALSE,FALSE,Texture2D'/Game/ASSETS/Tools/Icons/EI_BP_Cranes_02.EI_BP_Cranes_02',None,BlueprintGeneratedClass'/Game/ASSETS/ENVIRONMENT/PROPS/PROPS_ACTORS/BluePrint/BP_Cranes_02.BP_Cranes_02_C',None,None,None,None,2.000000,None
98,Cranes BP,Props,BluePrint,,FALSE,FALSE,FALSE,Texture2D'/Game/ASSETS/Tools/Icons/EI_BP_Cranes_02.EI_BP_Cranes_02',None,BlueprintGeneratedClass'/Game/ASSETS/ENVIRONMENT/PROPS/PROPS_ACTORS/BluePrint/BP_Cranes_02.BP_Cranes_02_C',None,None,None,None,2.000000,None
99,Cristal 01,Rocks,Mesh,,FALSE,FALSE,FALSE,None,StaticMesh'/Game/ASSETS/ENVIRONMENT/PROPS/MESHES/M_cristal_1.M_cristal_1',None,None,None,None,None,2.000000,None
100,Cristal 02,Rocks,Mesh,,FALSE,FALSE,FALSE,None,StaticMesh'/Game/ASSETS/ENVIRONMENT/PROPS/MESHES/M_Cristal_2.M_Cristal_2',None,None,None,None,None,2.000000,None
101,Cristal 03,Rocks,Mesh,,FALSE,FALSE,FALSE,None,StaticMesh'/Game/ASSETS/ENVIRONMENT/PROPS/MESHES/M_Cristal_3.M_Cristal_3',None,None,None,None,None,2.000000,None
102,Cub 01,Props,Mesh,,FALSE,FALSE,FALSE,Texture2D'/Game/ASSETS/Tools/Icons/EI_M_Cup_01_LP.EI_M_Cup_01_LP',StaticMesh'/Game/ASSETS/ENVIRONMENT/PROPS/MESHES/M_Cup_01_LP.M_Cup_01_LP',None,None,None,None,None,2.000000,None
103,Cub 02,Props,Mesh,,FALSE,FALSE,FALSE,Texture2D'/Game/ASSETS/Tools/Icons/EI_M_Cup_02_LP.EI_M_Cup_02_LP',StaticMesh'/Game/ASSETS/ENVIRONMENT/PROPS/MESHES/M_Cup_02_LP.M_Cup_02_LP',None,None,None,None,None,2.000000,None
104,Cuillère 01,Props,Mesh,,FALSE,FALSE,FALSE,Texture2D'/Game/ASSETS/Tools/Icons/EI_M_Cuilliere_01_LP.EI_M_Cuilliere_01_LP',StaticMesh'/Game/ASSETS/ENVIRONMENT/PROPS/MESHES/M_Cuilliere_01_LP.M_Cuilliere_01_LP',None,None,None,None,None,2.000000,None
105,Cuillère 02,Props,Mesh,,FALSE,FALSE,FALSE,Texture2D'/Game/ASSETS/Tools/Icons/EI_M_Cuilliere_02_LP.EI_M_Cuilliere_02_LP',StaticMesh'/Game/ASSETS/ENVIRONMENT/PROPS/MESHES/M_Cuilliere_02_LP.M_Cuilliere_02_LP',None,None,None,None,None,2.000000,None
106,Cuillère 03,Props,Mesh,,FALSE,FALSE,FALSE,Texture2D'/Game/ASSETS/Tools/Icons/EI_M_Cuilliere_03_LP.EI_M_Cuilliere_03_LP',StaticMesh'/Game/ASSETS/ENVIRONMENT/PROPS/MESHES/M_Cuilliere_03_LP.M_Cuilliere_03_LP',None,None,None,None,None,2.000000,None
107,Cuillère 04,Props,Mesh,,FALSE,FALSE,FALSE,Texture2D'/Game/ASSETS/Tools/Icons/EI_M_Cuilliere_04_LP.EI_M_Cuilliere_04_LP',StaticMesh'/Game/ASSETS/ENVIRONMENT/PROPS/MESHES/M_Cuilliere_04_LP.M_Cuilliere_04_LP',None,None,None,None,None,2.000000,None
108,Dagger 1,Props,Mesh,,FALSE,FALSE,FALSE,Texture2D'/Game/ASSETS/Tools/Icons/EI_M_Dagger_1.EI_M_Dagger_1',StaticMesh'/Game/ASSETS/ENVIRONMENT/PROPS/MESHES/M_dagger_1.M_dagger_1',None,None,None,None,None,2.000000,None
109,Dagger 2,Props,Mesh,,FALSE,FALSE,FALSE,Texture2D'/Game/ASSETS/Tools/Icons/EI_M_Dagger_2.EI_M_Dagger_2',StaticMesh'/Game/ASSETS/ENVIRONMENT/PROPS/MESHES/M_dagger_2.M_dagger_2',None,None,None,None,None,2.000000,None
110,Damné,Character,BluePrint,,FALSE,FALSE,FALSE,None,None,BlueprintGeneratedClass'/Game/ASSETS/ENVIRONMENT/PROPS/PROPS_ACTORS/BluePrint/BP_Damne.BP_Damne_C',None,None,None,None,2.000000,None
113,Door Moveable,Game Object,BluePrint,,FALSE,FALSE,FALSE,None,None,BlueprintGeneratedClass'/Game/Dev/StoryMode/Actor/Actor/PuzzleActor/DoorMovable_BP.DoorMovable_BP_C',None,None,None,None,2.000000,None
114,Echafaudage 01,Props,BluePrint,,FALSE,FALSE,FALSE,Texture2D'/Game/ASSETS/Tools/Icons/EI_BP_Echafaudage_01.EI_BP_Echafaudage_01',None,BlueprintGeneratedClass'/Game/ASSETS/ENVIRONMENT/PROPS/PROPS_ACTORS/BluePrint/BP_Echafaudage_1.BP_Echafaudage_1_C',None,None,None,None,2.000000,None
115,Echafaudage 02,Props,BluePrint,,FALSE,FALSE,FALSE,Texture2D'/Game/ASSETS/Tools/Icons/EI_BP_Echafaudage_02.EI_BP_Echafaudage_02',None,BlueprintGeneratedClass'/Game/ASSETS/ENVIRONMENT/PROPS/PROPS_ACTORS/BluePrint/BP_Echafaudage_2.BP_Echafaudage_2_C',None,None,None,None,2.000000,None
118,Echafaudage 03,Props,BluePrint,,FALSE,FALSE,FALSE,Texture2D'/Game/ASSETS/Tools/Icons/EI_BP_Echafaudage_03.EI_BP_Echafaudage_03',None,BlueprintGeneratedClass'/Game/ASSETS/ENVIRONMENT/PROPS/PROPS_ACTORS/BluePrint/BP_Echafaudage_3.BP_Echafaudage_3_C',None,None,None,None,2.000000,None
119,Echafaudage 04,Props,BluePrint,,FALSE,FALSE,FALSE,Texture2D'/Game/ASSETS/Tools/Icons/EI_BP_Echafaudage_04.EI_BP_Echafaudage_04',None,BlueprintGeneratedClass'/Game/ASSETS/ENVIRONMENT/PROPS/PROPS_ACTORS/BluePrint/BP_Echafaudage_4.BP_Echafaudage_4_C',None,None,None,None,2.000000,None
120,Egouts,Props,BluePrint,,FALSE,FALSE,FALSE,Texture2D'/Game/ASSETS/Tools/Icons/EI_BP_Egouts.EI_BP_Egouts',None,BlueprintGeneratedClass'/Game/ASSETS/ENVIRONMENT/PROPS/PROPS_ACTORS/BluePrint/BP_Egouts.BP_Egouts_C',None,None,None,None,2.000000,None
121,Egouts 01,Props,BluePrint,,FALSE,FALSE,FALSE,Texture2D'/Game/ASSETS/Tools/Icons/EI_BP_Egouts_01.EI_BP_Egouts_01',None,BlueprintGeneratedClass'/Game/ASSETS/ENVIRONMENT/PROPS/PROPS_ACTORS/BluePrint/BP_egouts_1.BP_egouts_1_C',None,None,None,None,2.000000,None
122,Egouts 02,Props,BluePrint,,FALSE,FALSE,FALSE,Texture2D'/Game/ASSETS/Tools/Icons/EI_BP_Egouts_02.EI_BP_Egouts_02',None,BlueprintGeneratedClass'/Game/ASSETS/ENVIRONMENT/PROPS/PROPS_ACTORS/BluePrint/BP_egouts_2.BP_egouts_2_C',None,None,None,None,2.000000,None
124,Egouts 03,Props,BluePrint,,FALSE,FALSE,FALSE,Texture2D'/Game/ASSETS/Tools/Icons/EI_BP_Egouts_03.EI_BP_Egouts_03',None,BlueprintGeneratedClass'/Game/ASSETS/ENVIRONMENT/PROPS/PROPS_ACTORS/BluePrint/BP_egouts_3.BP_egouts_3_C',None,None,None,None,2.000000,None
125,Egouts BP,Props,BluePrint,,FALSE,FALSE,FALSE,Texture2D'/Game/ASSETS/Tools/Icons/EI_BP_Egouts.EI_BP_Egouts',None,BlueprintGeneratedClass'/Game/ASSETS/ENVIRONMENT/PROPS/PROPS_ACTORS/BluePrint/BP_Egouts.BP_Egouts_C',None,None,None,None,2.000000,None
126,Fissure Large 1,Decal,Material,,FALSE,FALSE,FALSE,Texture2D'/Game/ASSETS/Tools/Icons/EI_D_Fissure_Large_1.EI_D_Fissure_Large_1',None,None,Material'/Game/ASSETS/ENVIRONMENT/PROPS/Décal/D_Fissure_large_1.D_Fissure_large_1',None,None,None,2.000000,None
127,Fissure Large 2,Decal,Material,,FALSE,FALSE,FALSE,Texture2D'/Game/ASSETS/Tools/Icons/EI_D_Fissure_Large_2.EI_D_Fissure_Large_2',None,None,Material'/Game/ASSETS/ENVIRONMENT/PROPS/Décal/D_Fissure_large_2.D_Fissure_large_2',None,None,None,2.000000,None
128,Fissure Large 3,Decal,Material,,FALSE,FALSE,FALSE,Texture2D'/Game/ASSETS/Tools/Icons/EI_D_Fissure_Large_3.EI_D_Fissure_Large_3',None,None,Material'/Game/ASSETS/ENVIRONMENT/PROPS/Décal/D_Fissure_large_3.D_Fissure_large_3',None,None,None,2.000000,None
129,Fleur Clean 1,Vegetation,Mesh,,FALSE,FALSE,FALSE,Texture2D'/Game/ASSETS/Tools/Icons/EI_M_NenuFleur_Clean1.EI_M_NenuFleur_Clean1',StaticMesh'/Game/ASSETS/ENVIRONMENT/Foliage/MESHES/M_FleurClean1.M_FleurClean1',None,None,None,None,None,2.000000,None
130,Fleur Clean 2,Vegetation,Mesh,,FALSE,FALSE,FALSE,Texture2D'/Game/ASSETS/Tools/Icons/EI_M_NenuFleur_Clean2.EI_M_NenuFleur_Clean2',StaticMesh'/Game/ASSETS/ENVIRONMENT/Foliage/MESHES/M_FleurClean2.M_FleurClean2',None,None,None,None,None,2.000000,None
131,Fleur Dirt 1,Vegetation,Mesh,,FALSE,FALSE,FALSE,Texture2D'/Game/ASSETS/Tools/Icons/EI_M_NenuFleur_Dirt_1.EI_M_NenuFleur_Dirt_1',StaticMesh'/Game/ASSETS/ENVIRONMENT/Foliage/MESHES/M_FleurDirt1.M_FleurDirt1',None,None,None,None,None,2.000000,None
132,Fleur Dirt 2,Vegetation,Mesh,,FALSE,FALSE,FALSE,Texture2D'/Game/ASSETS/Tools/Icons/EI_M_NenuFleur_Dirt_2.EI_M_NenuFleur_Dirt_2',StaticMesh'/Game/ASSETS/ENVIRONMENT/Foliage/MESHES/M_FleurDirt2.M_FleurDirt2',None,None,None,None,None,2.000000,None
133,Fleur Mid 1,Vegetation,Mesh,,FALSE,FALSE,FALSE,Texture2D'/Game/ASSETS/Tools/Icons/EI_M_NenuFleur_Mid_1.EI_M_NenuFleur_Mid_1',StaticMesh'/Game/ASSETS/ENVIRONMENT/Foliage/MESHES/M_FleurMid1.M_FleurMid1',None,None,None,None,None,2.000000,None
134,Fleur Mid 2,Vegetation,Mesh,,FALSE,FALSE,FALSE,Texture2D'/Game/ASSETS/Tools/Icons/EI_M_NenuFleur_Mid_2.EI_M_NenuFleur_Mid_2',StaticMesh'/Game/ASSETS/ENVIRONMENT/Foliage/MESHES/M_FleurMid2.M_FleurMid2',None,None,None,None,None,2.000000,None
135,Gabarti Ahmes,Gabarit,Mesh,,FALSE,FALSE,FALSE,None,StaticMesh'/Game/RND/gabarits/Meshes/M_Player.M_Player',None,None,None,None,None,2.000000,None
136,Gabarti Cannaux,Gabarit,Mesh,,FALSE,FALSE,FALSE,None,StaticMesh'/Game/RND/gabarits/Meshes/M_Cannaux.M_Cannaux',None,None,None,None,None,2.000000,None
137,Gabarti de Base,Gabarit,Mesh,,FALSE,FALSE,FALSE,None,StaticMesh'/Game/RND/gabarits/Meshes/M_BASE_MG.M_BASE_MG',None,None,None,None,None,2.000000,None
139,Gabarti Demi Escalier,Gabarit,Mesh,,FALSE,FALSE,FALSE,None,StaticMesh'/Game/RND/gabarits/Meshes/M_StairsHalf.M_StairsHalf',None,None,None,None,None,2.000000,None
140,Gabarti Escalier,Gabarit,Mesh,,FALSE,FALSE,FALSE,None,StaticMesh'/Game/RND/gabarits/Meshes/M_Stairs.M_Stairs',None,None,None,None,None,2.000000,None
141,Gabarti Grande Porte,Gabarit,Mesh,,FALSE,FALSE,FALSE,None,StaticMesh'/Game/RND/gabarits/Meshes/M_DoorBig.M_DoorBig',None,None,None,None,None,2.000000,None
142,Gabarti Mur 1/2 Hauteur,Gabarit,Mesh,,FALSE,FALSE,FALSE,None,StaticMesh'/Game/RND/gabarits/Meshes/M_WallHalfH.M_WallHalfH',None,None,None,None,None,2.000000,None
143,Gabarti Mur 1/2 Vertical,Gabarit,Mesh,,FALSE,FALSE,FALSE,None,StaticMesh'/Game/RND/gabarits/Meshes/M_WallHalfV.M_WallHalfV',None,None,None,None,None,2.000000,None
144,Gabarti Mur Double Hauteur,Gabarit,Mesh,,FALSE,FALSE,FALSE,None,StaticMesh'/Game/RND/gabarits/Meshes/M_WallDouble.M_WallDouble',None,None,None,None,None,2.000000,None
145,Gabarti Mur Double Vertical,Gabarit,Mesh,,FALSE,FALSE,FALSE,None,StaticMesh'/Game/RND/gabarits/Meshes/M_WallDoubleV.M_WallDoubleV',None,None,None,None,None,2.000000,None
146,Gabarti Mur Moyen,Gabarit,Mesh,,FALSE,FALSE,FALSE,None,StaticMesh'/Game/RND/gabarits/Meshes/M_Wallx1.M_Wallx1',None,None,None,None,None,2.000000,None
147,Gabarti Mur Quad,Gabarit,Mesh,,FALSE,FALSE,FALSE,None,StaticMesh'/Game/RND/gabarits/Meshes/M_WallQuad.M_WallQuad',None,None,None,None,None,2.000000,None
148,Gabarti Pillier HPetit / LMoyen,Gabarit,Mesh,,FALSE,FALSE,FALSE,None,StaticMesh'/Game/RND/gabarits/Meshes/M_pilar_HSmall_VMedium.M_pilar_HSmall_VMedium',None,None,None,None,None,2.000000,None
149,Gabarti Pillier HPetit / LPetit,Gabarit,Mesh,,FALSE,FALSE,FALSE,None,StaticMesh'/Game/RND/gabarits/Meshes/M_Pilar_HSmall_VSmall.M_Pilar_HSmall_VSmall',None,None,None,None,None,2.000000,None
150,Gabarti Porte Tombeau,Gabarit,Mesh,,FALSE,FALSE,FALSE,None,StaticMesh'/Game/RND/gabarits/Meshes/M_DoorTombeau.M_DoorTombeau',None,None,None,None,None,2.000000,None
151,Gabarti Statue,Gabarit,Mesh,,FALSE,FALSE,FALSE,None,StaticMesh'/Game/RND/gabarits/Meshes/M_statue.M_statue',None,None,None,None,None,2.000000,None
152,Gabarti Table,Gabarit,Mesh,,FALSE,FALSE,FALSE,None,StaticMesh'/Game/RND/gabarits/Meshes/M_table.M_table',None,None,None,None,None,2.000000,None
153,Garde Ecarlate,Character,BluePrint,,FALSE,FALSE,FALSE,None,None,BlueprintGeneratedClass'/Game/Dev/StoryMode/Actor/Pawn/Ennemy/GardeEcarlate/Garde_Ecarlate.Garde_Ecarlate_C',None,None,None,None,2.000000,None
154,Glyph Decal BP,Decal,BluePrint,,FALSE,FALSE,FALSE,Texture2D'/Game/ASSETS/Tools/Icons/EI_BP_Glyph.EI_BP_Glyph',None,BlueprintGeneratedClass'/Game/ASSETS/ENVIRONMENT/PROPS/PROPS_ACTORS/BluePrint/BP_HieroglyphDecal.BP_HieroglyphDecal_C',None,None,None,None,2.000000,None
155,Groupe Herbe 01,Vegetation,Mesh,,FALSE,FALSE,FALSE,Texture2D'/Game/ASSETS/Tools/Icons/EI_M_Groupherbe_01.EI_M_Groupherbe_01',StaticMesh'/Game/ASSETS/ENVIRONMENT/Foliage/MESHES/M_Feuilles.M_Feuilles',None,None,None,None,None,2.000000,None
156,Hieroglyphe 01,Props Actor,BluePrint,,FALSE,FALSE,FALSE,Texture2D'/Game/ASSETS/Tools/Icons/EI_BP_Hieroglphe.EI_BP_Hieroglphe',None,BlueprintGeneratedClass'/Game/ASSETS/GAMEPLAY/HIEROGLYPHE/BP_hieroglyphe.BP_hieroglyphe_C',None,None,None,None,2.000000,None
157,Horhas,Character,BluePrint,,FALSE,FALSE,FALSE,None,None,BlueprintGeneratedClass'/Game/Dev/StoryMode/Actor/Pawn/Ennemy/Horhas/SK_Horha_01.SK_Horha_01_C',None,None,None,None,2.000000,None
158,Nenuphar Clean,Vegetation,Mesh,,FALSE,FALSE,FALSE,Texture2D'/Game/ASSETS/Tools/Icons/EI_M_NenuClean.EI_M_NenuClean',StaticMesh'/Game/ASSETS/ENVIRONMENT/Foliage/MESHES/M_NenuClean.M_NenuClean',None,None,None,None,None,2.000000,None
159,Nenuphar Dirt,Vegetation,Mesh,,FALSE,FALSE,FALSE,Texture2D'/Game/ASSETS/Tools/Icons/EI_M_NenuDirt.EI_M_NenuDirt',StaticMesh'/Game/ASSETS/ENVIRONMENT/Foliage/MESHES/M_NenuDirt.M_NenuDirt',None,None,None,None,None,2.000000,None
160,Nenuphar Mid,Vegetation,Mesh,,FALSE,FALSE,FALSE,Texture2D'/Game/ASSETS/Tools/Icons/EI_M_NenuMid.EI_M_NenuMid',StaticMesh'/Game/ASSETS/ENVIRONMENT/Foliage/MESHES/M_NenuMid.M_NenuMid',None,None,None,None,None,2.000000,None
161,Obelisque,Props,Mesh,Version sans Hieroglyph car il faut en faire un blueprint avec décal.,TRUE,FALSE,FALSE,Texture2D'/Game/ASSETS/Tools/Icons/EI_M_Obelisque.EI_M_Obelisque',StaticMesh'/Game/ASSETS/ENVIRONMENT/PROPS/MESHES/M_obelisque.M_Obelisque',None,None,MaterialInstanceConstant'/Game/ASSETS/ENVIRONMENT/PROPS/MATERIALS/MI_Obelisque_2.MI_Obelisque_2',None,None,2.000000,None
162,Obelisque Cassé 1,Props,Mesh,Version sans Hieroglyph car il faut en faire un blueprint avec décal.,TRUE,FALSE,FALSE,Texture2D'/Game/ASSETS/Tools/Icons/EI_M_Obelisque_Broken_1.EI_M_Obelisque_Broken_1',StaticMesh'/Game/ASSETS/ENVIRONMENT/PROPS/MESHES/M_Obelisque_broken_01.M_Obelisque_broken_01',None,None,MaterialInstanceConstant'/Game/ASSETS/ENVIRONMENT/PROPS/MATERIALS/MI_Obelisque_2.MI_Obelisque_2',None,None,2.000000,None
163,Obelisque Cassé 2,Props,Mesh,Version sans Hieroglyph car il faut en faire un blueprint avec décal.,TRUE,FALSE,FALSE,Texture2D'/Game/ASSETS/Tools/Icons/EI_M_Obelisque_Broken_2.EI_M_Obelisque_Broken_2',StaticMesh'/Game/ASSETS/ENVIRONMENT/PROPS/MESHES/M_Obelisque_broken_02.M_Obelisque_broken_02',None,None,MaterialInstanceConstant'/Game/ASSETS/ENVIRONMENT/PROPS/MATERIALS/MI_Obelisque_2.MI_Obelisque_2',None,None,2.000000,None
164,Obelisque Cassé 3,Props,Mesh,Version sans Hieroglyph car il faut en faire un blueprint avec décal.,TRUE,FALSE,FALSE,Texture2D'/Game/ASSETS/Tools/Icons/EI_M_Obelisque_Broken_3.EI_M_Obelisque_Broken_3',StaticMesh'/Game/ASSETS/ENVIRONMENT/PROPS/MESHES/M_Obelisque_broken_03.M_Obelisque_broken_03',None,None,MaterialInstanceConstant'/Game/ASSETS/ENVIRONMENT/PROPS/MATERIALS/MI_Obelisque_2.MI_Obelisque_2',None,None,2.000000,None
165,Obelisque Cassé 4,Props,Mesh,Version sans Hieroglyph car il faut en faire un blueprint avec décal.,TRUE,FALSE,FALSE,Texture2D'/Game/ASSETS/Tools/Icons/EI_M_Obelisque_Broken_4.EI_M_Obelisque_Broken_4',StaticMesh'/Game/ASSETS/ENVIRONMENT/PROPS/MESHES/M_Obelisque_broken_04.M_Obelisque_broken_04',None,None,MaterialInstanceConstant'/Game/ASSETS/ENVIRONMENT/PROPS/MATERIALS/MI_Obelisque_2.MI_Obelisque_2',None,None,2.000000,None
166,Ornement Sol 01,Ground Surface,Mesh,,FALSE,FALSE,FALSE,Texture2D'/Game/ASSETS/Tools/Icons/EI_M_Ornement_Sol_01.EI_M_Ornement_Sol_01',StaticMesh'/Game/ASSETS/ENVIRONMENT/PROPS/MESHES/M_ornementSol_01.M_ornementSol_01',None,None,None,None,None,2.000000,None
167,Ornement Sol 02,Ground Surface,Mesh,,FALSE,FALSE,FALSE,Texture2D'/Game/ASSETS/Tools/Icons/EI_M_Ornement_Sol_02.EI_M_Ornement_Sol_02',StaticMesh'/Game/ASSETS/ENVIRONMENT/PROPS/MESHES/M_ornementSol_02.M_ornementSol_02',None,None,None,None,None,2.000000,None
168,Ornement Sol 03,Ground Surface,Mesh,,FALSE,FALSE,FALSE,Texture2D'/Game/ASSETS/Tools/Icons/EI_M_Ornement_Sol_03.EI_M_Ornement_Sol_03',StaticMesh'/Game/ASSETS/ENVIRONMENT/PROPS/MESHES/M_ornementSol_03.M_ornementSol_03',None,None,None,None,None,2.000000,None
169,Ornement Sol 04,Ground Surface,Mesh,,FALSE,FALSE,FALSE,Texture2D'/Game/ASSETS/Tools/Icons/EI_M_Ornement_Sol_04.EI_M_Ornement_Sol_04',StaticMesh'/Game/ASSETS/ENVIRONMENT/PROPS/MESHES/M_ornementSol_04.M_ornementSol_04',None,None,None,None,None,2.000000,None
170,Panier 01,Props,Mesh,,FALSE,FALSE,FALSE,Texture2D'/Game/ASSETS/Tools/Icons/EI_M_Panier_01.EI_M_Panier_01',StaticMesh'/Game/ASSETS/ENVIRONMENT/PROPS/MESHES/M_Panier_01.M_Panier_01',None,None,None,None,None,2.000000,None
171,Panier 01,Props,BluePrint,,FALSE,FALSE,FALSE,Texture2D'/Game/ASSETS/Tools/Icons/EI_BP_Panier_1.EI_BP_Panier_1',None,BlueprintGeneratedClass'/Game/ASSETS/ENVIRONMENT/PROPS/PROPS_ACTORS/BluePrint/BP_Panier_1.BP_Panier_1_C',None,None,None,None,2.000000,None
172,Panier 02,Props,Mesh,,FALSE,FALSE,FALSE,Texture2D'/Game/ASSETS/Tools/Icons/EI_M_Panier_02.EI_M_Panier_02',StaticMesh'/Game/ASSETS/ENVIRONMENT/PROPS/MESHES/M_Panier_02.M_Panier_02',None,None,None,None,None,2.000000,None
173,Panier 02,Props,BluePrint,,FALSE,FALSE,FALSE,Texture2D'/Game/ASSETS/Tools/Icons/EI_BP_Panier_2.EI_BP_Panier_2',None,BlueprintGeneratedClass'/Game/ASSETS/ENVIRONMENT/PROPS/PROPS_ACTORS/BluePrint/BP_Panier_2.BP_Panier_2_C',None,None,None,None,2.000000,None
174,Panier 03,Props,Mesh,,FALSE,FALSE,FALSE,Texture2D'/Game/ASSETS/Tools/Icons/EI_M_Panier_03.EI_M_Panier_03',StaticMesh'/Game/ASSETS/ENVIRONMENT/PROPS/MESHES/M_Panier_03.M_Panier_03',None,None,None,None,None,2.000000,None
175,Panier 03,Props,BluePrint,,FALSE,FALSE,FALSE,Texture2D'/Game/ASSETS/Tools/Icons/EI_BP_Panier_03.EI_BP_Panier_03',None,BlueprintGeneratedClass'/Game/ASSETS/ENVIRONMENT/PROPS/PROPS_ACTORS/BluePrint/BP_Panier_3.BP_Panier_3_C',None,None,None,None,2.000000,None
176,Panier 04,Props,Mesh,,FALSE,FALSE,FALSE,Texture2D'/Game/ASSETS/Tools/Icons/EI_M_Panier_04.EI_M_Panier_04',StaticMesh'/Game/ASSETS/ENVIRONMENT/PROPS/MESHES/M_Panier_04.M_Panier_04',None,None,None,None,None,2.000000,None
177,Panier 04,Props,BluePrint,,FALSE,FALSE,FALSE,Texture2D'/Game/ASSETS/Tools/Icons/EI_BP_Panier_04.EI_BP_Panier_04',None,BlueprintGeneratedClass'/Game/ASSETS/ENVIRONMENT/PROPS/PROPS_ACTORS/BluePrint/BP_Panier_4.BP_Panier_4_C',None,None,None,None,2.000000,None
178,Panier 05,Props,Mesh,,FALSE,FALSE,FALSE,Texture2D'/Game/ASSETS/Tools/Icons/EI_M_Panier_05.EI_M_Panier_05',StaticMesh'/Game/ASSETS/ENVIRONMENT/PROPS/MESHES/M_Panier_05.M_Panier_05',None,None,None,None,None,2.000000,None
179,Panier 05,Props,BluePrint,,FALSE,FALSE,FALSE,Texture2D'/Game/ASSETS/Tools/Icons/EI_BP_Panier_05.EI_BP_Panier_05',None,BlueprintGeneratedClass'/Game/ASSETS/ENVIRONMENT/PROPS/PROPS_ACTORS/BluePrint/BP_Panier_5.BP_Panier_5_C',None,None,None,None,2.000000,None
180,Panier 06,Props,Mesh,,FALSE,FALSE,FALSE,Texture2D'/Game/ASSETS/Tools/Icons/EI_M_Panier_06.EI_M_Panier_06',StaticMesh'/Game/ASSETS/ENVIRONMENT/PROPS/MESHES/M_Panier_06.M_Panier_06',None,None,None,None,None,2.000000,None
181,Panier 06,Props,BluePrint,,FALSE,FALSE,FALSE,Texture2D'/Game/ASSETS/Tools/Icons/EI_BP_Panier_06.EI_BP_Panier_06',None,BlueprintGeneratedClass'/Game/ASSETS/ENVIRONMENT/PROPS/PROPS_ACTORS/BluePrint/BP_Panier_6.BP_Panier_6_C',None,None,None,None,2.000000,None
182,Panier 07,Props,Mesh,,FALSE,FALSE,FALSE,Texture2D'/Game/ASSETS/Tools/Icons/EI_M_Panier_07.EI_M_Panier_07',StaticMesh'/Game/ASSETS/ENVIRONMENT/PROPS/MESHES/M_Panier_07.M_Panier_07',None,None,None,None,None,2.000000,None
183,Panier 07,Props,BluePrint,,FALSE,FALSE,FALSE,None,None,BlueprintGeneratedClass'/Game/ASSETS/ENVIRONMENT/PROPS/PROPS_ACTORS/BluePrint/BP_Panier_7.BP_Panier_7_C',None,None,None,None,2.000000,None
184,Panier 08,Props,BluePrint,,FALSE,FALSE,FALSE,Texture2D'/Game/ASSETS/Tools/Icons/EI_BP_Panier_08.EI_BP_Panier_08',None,BlueprintGeneratedClass'/Game/ASSETS/ENVIRONMENT/PROPS/PROPS_ACTORS/BluePrint/BP_Panier_8.BP_Panier_8_C',None,None,None,None,2.000000,None
185,Panier Top,Props,Mesh,,FALSE,FALSE,FALSE,Texture2D'/Game/ASSETS/Tools/Icons/EI_M_Panier_Top.EI_M_Panier_Top',StaticMesh'/Game/ASSETS/ENVIRONMENT/PROPS/MESHES/M_Panier_Top.M_Panier_Top',None,None,None,None,None,2.000000,None
186,Papyrus 1,Vegetation,Mesh,,FALSE,FALSE,FALSE,Texture2D'/Game/ASSETS/Tools/Icons/EI_M_Papyrus_2.EI_M_Papyrus_2',StaticMesh'/Game/ASSETS/ENVIRONMENT/Foliage/MESHES/M_Papyrus1.M_Papyrus1',None,None,None,None,None,2.000000,None
187,Papyrus 2,Vegetation,Mesh,,FALSE,FALSE,FALSE,Texture2D'/Game/ASSETS/Tools/Icons/EI_M_Papyrus_1.EI_M_Papyrus_1',StaticMesh'/Game/ASSETS/ENVIRONMENT/Foliage/MESHES/M_Papyrus2.M_Papyrus2',None,None,None,None,None,2.000000,None
188,Papyrus 4,Vegetation,Mesh,,FALSE,FALSE,FALSE,Texture2D'/Game/ASSETS/Tools/Icons/EI_M_Papyrus_3.EI_M_Papyrus_3',StaticMesh'/Game/ASSETS/ENVIRONMENT/Foliage/MESHES/M_Papyrus4.M_Papyrus4',None,None,None,None,None,2.000000,None
189,Papyrus BP Random,Vegetation,BluePrint,,FALSE,FALSE,FALSE,Texture2D'/Game/ASSETS/Tools/Icons/EI_BP_Papyrus.EI_BP_Papyrus',None,BlueprintGeneratedClass'/Game/ASSETS/ENVIRONMENT/Foliage/Blueprint/BP_papyrus.BP_papyrus_C',None,None,None,None,2.000000,None
190,Papyrus Tige 1,Vegetation,Mesh,,FALSE,FALSE,FALSE,Texture2D'/Game/ASSETS/Tools/Icons/EI_M_Tige1.EI_M_Tige1',StaticMesh'/Game/ASSETS/ENVIRONMENT/Foliage/MESHES/M_PapyrusTige_1.M_PapyrusTige_1',None,None,None,None,None,2.000000,None
191,Papyrus Tige 2,Vegetation,Mesh,,FALSE,FALSE,FALSE,Texture2D'/Game/ASSETS/Tools/Icons/EI_M_Tige2.EI_M_Tige2',StaticMesh'/Game/ASSETS/ENVIRONMENT/Foliage/MESHES/M_PapyrusTige2.M_PapyrusTige2',None,None,None,None,None,2.000000,None
192,Pillar Blueprint,Props Actor,BluePrint,,FALSE,FALSE,FALSE,Texture2D'/Game/ASSETS/Tools/Icons/EI_BP_Pillar.EI_BP_Pillar',None,BlueprintGeneratedClass'/Game/ASSETS/ENVIRONMENT/PROPS/PROPS_ACTORS/BluePrint/BP_Pillar.BP_Pillar_C',None,None,None,None,2.000000,None
193,PIllar Not Modular,Props Actor,BluePrint,,FALSE,FALSE,FALSE,None,None,BlueprintGeneratedClass'/Game/ASSETS/ENVIRONMENT/PROPS/PROPS_ACTORS/BluePrint/BP_PIllar_NotModular.BP_PIllar_NotModular_C',None,None,None,None,2.000000,None
194,PIllier petit 1 Cassé,Props,Mesh,,TRUE,FALSE,FALSE,Texture2D'/Game/ASSETS/Tools/Icons/EI_M_Pillar_Broken_1.EI_M_Pillar_Broken_1',StaticMesh'/Game/ASSETS/ENVIRONMENT/PROPS/MESHES/M_Pillar_Broken_1.M_Pillar_Broken_1',None,None,MaterialInstanceConstant'/Game/ASSETS/ENVIRONMENT/PROPS/MATERIALS/MI_Pillar_Petit_Sale.MI_Pillar_Petit_Sale',None,None,2.000000,None
195,PIllier petit 2 Cassé,Props,Mesh,,TRUE,FALSE,FALSE,Texture2D'/Game/ASSETS/Tools/Icons/EI_M_Pillar_Broken_2.EI_M_Pillar_Broken_2',StaticMesh'/Game/ASSETS/ENVIRONMENT/PROPS/MESHES/M_Pillar_Broken_2.M_Pillar_Broken_2',None,None,MaterialInstanceConstant'/Game/ASSETS/ENVIRONMENT/PROPS/MATERIALS/MI_Pillar_Petit_Sale.MI_Pillar_Petit_Sale',None,None,2.000000,None
196,Planche Grand,Props,Mesh,,FALSE,FALSE,FALSE,Texture2D'/Game/ASSETS/Tools/Icons/EI_M_Planche_Grand.EI_M_Planche_Grand',StaticMesh'/Game/ASSETS/ENVIRONMENT/PROPS/MESHES/M_Planche_Grand.M_Planche_Grand',None,None,None,None,None,2.000000,None
197,Planche Immense,Props,Mesh,,FALSE,FALSE,FALSE,Texture2D'/Game/ASSETS/Tools/Icons/EI_M_Planche_Immense.EI_M_Planche_Immense',StaticMesh'/Game/ASSETS/ENVIRONMENT/PROPS/MESHES/M_Planche_Immense.M_Planche_Immense',None,None,None,None,None,2.000000,None
198,Planche Moyen 01,Props,Mesh,,FALSE,FALSE,FALSE,Texture2D'/Game/ASSETS/Tools/Icons/EI_M_Planche_Moyen_01.EI_M_Planche_Moyen_01',StaticMesh'/Game/ASSETS/ENVIRONMENT/PROPS/MESHES/M_Planche_Moyen_01.M_Planche_Moyen_01',None,None,None,None,None,2.000000,None
199,Planche Moyen 02,Props,Mesh,,FALSE,FALSE,FALSE,Texture2D'/Game/ASSETS/Tools/Icons/EI_M_Planche_Moyen_02.EI_M_Planche_Moyen_02',StaticMesh'/Game/ASSETS/ENVIRONMENT/PROPS/MESHES/M_Planche_Moyen_02.M_Planche_Moyen_02',None,None,None,None,None,2.000000,None
200,Planche Petite 01,Props,Mesh,,FALSE,FALSE,FALSE,Texture2D'/Game/ASSETS/Tools/Icons/EI_M_Planche_Petit_01.EI_M_Planche_Petit_01',StaticMesh'/Game/ASSETS/ENVIRONMENT/PROPS/MESHES/M_Planche_Petite_01.M_Planche_Petite_01',None,None,None,None,None,2.000000,None
201,Planche Petite 02,Props,Mesh,,FALSE,FALSE,FALSE,Texture2D'/Game/ASSETS/Tools/Icons/EI_M_Planche_Petit_02.EI_M_Planche_Petit_02',StaticMesh'/Game/ASSETS/ENVIRONMENT/PROPS/MESHES/M_Planche_Petite_02.M_Planche_Petite_02',None,None,None,None,None,2.000000,None
202,Planche Pilier 01,Props,Mesh,,FALSE,FALSE,FALSE,Texture2D'/Game/ASSETS/Tools/Icons/EI_M_Planche_Pilier_01.EI_M_Planche_Pilier_01',StaticMesh'/Game/ASSETS/ENVIRONMENT/PROPS/MESHES/M_Planche_Pilier_01.M_Planche_Pilier_01',None,None,None,None,None,2.000000,None
203,Planche Pilier 02,Props,Mesh,,FALSE,FALSE,FALSE,Texture2D'/Game/ASSETS/Tools/Icons/EI_M_Planche_Pilier_02.EI_M_Planche_Pilier_02',StaticMesh'/Game/ASSETS/ENVIRONMENT/PROPS/MESHES/M_Planche_Pilier_02.M_Planche_Pilier_02',None,None,None,None,None,2.000000,None
204,Planche Pilier 03,Props,Mesh,,FALSE,FALSE,FALSE,Texture2D'/Game/ASSETS/Tools/Icons/EI_M_Planche_Pilier_03.EI_M_Planche_Pilier_03',StaticMesh'/Game/ASSETS/ENVIRONMENT/PROPS/MESHES/M_Planche_Pilier_03.M_Planche_Pilier_03',None,None,None,None,None,2.000000,None
205,Planche Pilier 04,Props,Mesh,,FALSE,FALSE,FALSE,Texture2D'/Game/ASSETS/Tools/Icons/EI_M_Planche_Pilier_04.EI_M_Planche_Pilier_04',StaticMesh'/Game/ASSETS/ENVIRONMENT/PROPS/MESHES/M_Planche_Pilier_04.M_Planche_Pilier_04',None,None,None,None,None,2.000000,None
206,Plante 1,Vegetation,Mesh,,FALSE,FALSE,FALSE,Texture2D'/Game/ASSETS/Tools/Icons/EI_M_PlanteFleur_3.EI_M_PlanteFleur_3',StaticMesh'/Game/ASSETS/ENVIRONMENT/Foliage/MESHES/M_Plante1.M_Plante1',None,None,None,None,None,2.000000,None
207,Plante 2,Vegetation,Mesh,,FALSE,FALSE,FALSE,Texture2D'/Game/ASSETS/Tools/Icons/EI_M_PlanteFleur_1.EI_M_PlanteFleur_1',StaticMesh'/Game/ASSETS/ENVIRONMENT/Foliage/MESHES/M_Plante2.M_Plante2',None,None,None,None,None,2.000000,None
208,Plante 3,Vegetation,Mesh,,FALSE,FALSE,FALSE,Texture2D'/Game/ASSETS/Tools/Icons/EI_M_PlanteFleur_2.EI_M_PlanteFleur_2',StaticMesh'/Game/ASSETS/ENVIRONMENT/Foliage/MESHES/M_Plante3.M_Plante3',None,None,None,None,None,2.000000,None
209,Plante Desert 1,Vegetation,BluePrint,,FALSE,FALSE,FALSE,Texture2D'/Game/ASSETS/Tools/Icons/EI_BP_Plante_Desert_1.EI_BP_Plante_Desert_1',None,BlueprintGeneratedClass'/Game/ASSETS/ENVIRONMENT/Foliage/Blueprint/BP_Plante_Desert_1.BP_Plante_Desert_1_C',None,None,None,None,2.000000,None
210,Plante Desert 2,Vegetation,BluePrint,,FALSE,FALSE,FALSE,Texture2D'/Game/ASSETS/Tools/Icons/EI_BP_Plante_Desert_2.EI_BP_Plante_Desert_2',None,BlueprintGeneratedClass'/Game/ASSETS/ENVIRONMENT/Foliage/Blueprint/BP_Plante_Desert_2.BP_Plante_Desert_2_C',None,None,None,None,2.000000,None
211,Pot 01,Props,Mesh,,TRUE,TRUE,TRUE,Texture2D'/Game/ASSETS/Tools/Icons/EI_M_Pot_01.EI_M_Pot_01',StaticMesh'/Game/ASSETS/ENVIRONMENT/PROPS/MESHES/M_pot_01.M_pot_01',None,None,MaterialInstanceConstant'/Game/ASSETS/ENVIRONMENT/PROPS/MATERIALS/MI_pots_rouge.MI_pots_rouge',MaterialInstanceConstant'/Game/ASSETS/ENVIRONMENT/PROPS/MATERIALS/MI_pots_vert.MI_pots_vert',DestructibleMesh'/Game/ASSETS/ENVIRONMENT/PROPS/DestructibleMeshes/DM_pot_01.DM_pot_01',2.000000,MaterialInstanceConstant'/Game/ASSETS/ENVIRONMENT/PROPS/MATERIALS/MI_pots_cassables.MI_pots_cassables'
212,Pot 02,Props,Mesh,,TRUE,TRUE,TRUE,Texture2D'/Game/ASSETS/Tools/Icons/EI_M_Pot_02.EI_M_Pot_02',StaticMesh'/Game/ASSETS/ENVIRONMENT/PROPS/MESHES/M_pot_02.M_pot_02',None,None,MaterialInstanceConstant'/Game/ASSETS/ENVIRONMENT/PROPS/MATERIALS/MI_pots_rouge.MI_pots_rouge',None,DestructibleMesh'/Game/ASSETS/ENVIRONMENT/PROPS/DestructibleMeshes/DM_pot_02.DM_pot_02',1.000000,MaterialInstanceConstant'/Game/ASSETS/ENVIRONMENT/PROPS/MATERIALS/MI_pots_cassables.MI_pots_cassables'
213,Pot 03,Props,Mesh,,TRUE,TRUE,TRUE,Texture2D'/Game/ASSETS/Tools/Icons/EI_M_Pot_03.EI_M_Pot_03',StaticMesh'/Game/ASSETS/ENVIRONMENT/PROPS/MESHES/M_pot_03.M_pot_03',None,None,MaterialInstanceConstant'/Game/ASSETS/ENVIRONMENT/PROPS/MATERIALS/MI_pots_rouge.MI_pots_rouge',MaterialInstanceConstant'/Game/ASSETS/ENVIRONMENT/PROPS/MATERIALS/MI_pots_vert.MI_pots_vert',DestructibleMesh'/Game/ASSETS/ENVIRONMENT/PROPS/DestructibleMeshes/DM_pot_03.DM_pot_03',2.500000,MaterialInstanceConstant'/Game/ASSETS/ENVIRONMENT/PROPS/MATERIALS/MI_pots_cassables.MI_pots_cassables'
214,Pot 04,Props,Mesh,,TRUE,TRUE,TRUE,Texture2D'/Game/ASSETS/Tools/Icons/EI_M_Pot_04.EI_M_Pot_04',StaticMesh'/Game/ASSETS/ENVIRONMENT/PROPS/MESHES/M_pot_04.M_pot_04',None,None,MaterialInstanceConstant'/Game/ASSETS/ENVIRONMENT/PROPS/MATERIALS/MI_pots_rouge.MI_pots_rouge',MaterialInstanceConstant'/Game/ASSETS/ENVIRONMENT/PROPS/MATERIALS/MI_pots_vert.MI_pots_vert',DestructibleMesh'/Game/ASSETS/ENVIRONMENT/PROPS/DestructibleMeshes/DM_pot_04.DM_pot_04',2.500000,MaterialInstanceConstant'/Game/ASSETS/ENVIRONMENT/PROPS/MATERIALS/MI_pots_cassables.MI_pots_cassables'
215,Pot 05,Props,Mesh,,TRUE,TRUE,TRUE,Texture2D'/Game/ASSETS/Tools/Icons/EI_M_Pot_05.EI_M_Pot_05',StaticMesh'/Game/ASSETS/ENVIRONMENT/PROPS/MESHES/M_pot_05.M_pot_05',None,None,MaterialInstanceConstant'/Game/ASSETS/ENVIRONMENT/PROPS/MATERIALS/MI_pots_rouge.MI_pots_rouge',MaterialInstanceConstant'/Game/ASSETS/ENVIRONMENT/PROPS/MATERIALS/MI_pots_vert.MI_pots_vert',DestructibleMesh'/Game/ASSETS/ENVIRONMENT/PROPS/DestructibleMeshes/DM_pot_05.DM_pot_05',1.000000,MaterialInstanceConstant'/Game/ASSETS/ENVIRONMENT/PROPS/MATERIALS/MI_pots_cassables.MI_pots_cassables'
216,Pot 06,Props,Mesh,,TRUE,TRUE,TRUE,Texture2D'/Game/ASSETS/Tools/Icons/EI_M_Pot_06.EI_M_Pot_06',StaticMesh'/Game/ASSETS/ENVIRONMENT/PROPS/MESHES/M_pot_06.M_pot_06',None,None,MaterialInstanceConstant'/Game/ASSETS/ENVIRONMENT/PROPS/MATERIALS/MI_pots_rouge.MI_pots_rouge',MaterialInstanceConstant'/Game/ASSETS/ENVIRONMENT/PROPS/MATERIALS/MI_pots_vert.MI_pots_vert',DestructibleMesh'/Game/ASSETS/ENVIRONMENT/PROPS/DestructibleMeshes/DM_pot_06.DM_pot_06',3.000000,MaterialInstanceConstant'/Game/ASSETS/ENVIRONMENT/PROPS/MATERIALS/MI_pots_cassables.MI_pots_cassables'
217,Pot 07,Props,Mesh,,TRUE,TRUE,TRUE,Texture2D'/Game/ASSETS/Tools/Icons/EI_M_Pot_07.EI_M_Pot_07',StaticMesh'/Game/ASSETS/ENVIRONMENT/PROPS/MESHES/M_pot_07.M_pot_07',None,None,MaterialInstanceConstant'/Game/ASSETS/ENVIRONMENT/PROPS/MATERIALS/MI_pots_rouge2.MI_pots_rouge2',MaterialInstanceConstant'/Game/ASSETS/ENVIRONMENT/PROPS/MATERIALS/MI_pots_vert2.MI_pots_vert2',DestructibleMesh'/Game/ASSETS/ENVIRONMENT/PROPS/DestructibleMeshes/DM_pot_07.DM_pot_07',1.500000,MaterialInstanceConstant'/Game/ASSETS/ENVIRONMENT/PROPS/MATERIALS/MI_pots_cassables_2.MI_pots_cassables_2'
218,Pot 08,Props,Mesh,,TRUE,TRUE,TRUE,Texture2D'/Game/ASSETS/Tools/Icons/EI_M_Pot_08.EI_M_Pot_08',StaticMesh'/Game/ASSETS/ENVIRONMENT/PROPS/MESHES/M_pot_08.M_pot_08',None,None,MaterialInstanceConstant'/Game/ASSETS/ENVIRONMENT/PROPS/MATERIALS/MI_pots_rouge2.MI_pots_rouge2',MaterialInstanceConstant'/Game/ASSETS/ENVIRONMENT/PROPS/MATERIALS/MI_pots_vert2.MI_pots_vert2',DestructibleMesh'/Game/ASSETS/ENVIRONMENT/PROPS/DestructibleMeshes/DM_pot_08.DM_pot_08',2.000000,MaterialInstanceConstant'/Game/ASSETS/ENVIRONMENT/PROPS/MATERIALS/MI_pots_cassables_2.MI_pots_cassables_2'
219,Pot 09,Props,Mesh,,TRUE,TRUE,TRUE,Texture2D'/Game/ASSETS/Tools/Icons/EI_M_Pot_09.EI_M_Pot_09',StaticMesh'/Game/ASSETS/ENVIRONMENT/PROPS/MESHES/M_pot_09.M_pot_09',None,None,MaterialInstanceConstant'/Game/ASSETS/ENVIRONMENT/PROPS/MATERIALS/MI_pots_rouge2.MI_pots_rouge2',MaterialInstanceConstant'/Game/ASSETS/ENVIRONMENT/PROPS/MATERIALS/MI_pots_vert2.MI_pots_vert2',DestructibleMesh'/Game/ASSETS/ENVIRONMENT/PROPS/DestructibleMeshes/DM_pot_09.DM_pot_09',3.000000,MaterialInstanceConstant'/Game/ASSETS/ENVIRONMENT/PROPS/MATERIALS/MI_pots_cassables_2.MI_pots_cassables_2'
220,Pot 10,Props,Mesh,,TRUE,TRUE,TRUE,Texture2D'/Game/ASSETS/Tools/Icons/EI_M_Pot_10.EI_M_Pot_10',StaticMesh'/Game/ASSETS/ENVIRONMENT/PROPS/MESHES/M_pot_10.M_pot_10',None,None,MaterialInstanceConstant'/Game/ASSETS/ENVIRONMENT/PROPS/MATERIALS/MI_pots_rouge2.MI_pots_rouge2',MaterialInstanceConstant'/Game/ASSETS/ENVIRONMENT/PROPS/MATERIALS/MI_pots_vert2.MI_pots_vert2',DestructibleMesh'/Game/ASSETS/ENVIRONMENT/PROPS/DestructibleMeshes/DM_pot_10.DM_pot_10',1.500000,MaterialInstanceConstant'/Game/ASSETS/ENVIRONMENT/PROPS/MATERIALS/MI_pots_cassables_2.MI_pots_cassables_2'
221,Pot 11,Props,Mesh,,TRUE,TRUE,TRUE,Texture2D'/Game/ASSETS/Tools/Icons/EI_M_Pot_11.EI_M_Pot_11',StaticMesh'/Game/ASSETS/ENVIRONMENT/PROPS/MESHES/M_pot_11.M_pot_11',None,None,MaterialInstanceConstant'/Game/ASSETS/ENVIRONMENT/PROPS/MATERIALS/MI_pots_rouge2.MI_pots_rouge2',MaterialInstanceConstant'/Game/ASSETS/ENVIRONMENT/PROPS/MATERIALS/MI_pots_vert2.MI_pots_vert2',DestructibleMesh'/Game/ASSETS/ENVIRONMENT/PROPS/DestructibleMeshes/DM_pot_11.DM_pot_11',1.500000,MaterialInstanceConstant'/Game/ASSETS/ENVIRONMENT/PROPS/MATERIALS/MI_pots_cassables_2.MI_pots_cassables_2'
222,Pot 12,Props,Mesh,,TRUE,TRUE,TRUE,Texture2D'/Game/ASSETS/Tools/Icons/EI_M_Pot_12.EI_M_Pot_12',StaticMesh'/Game/ASSETS/ENVIRONMENT/PROPS/MESHES/M_pot_12.M_pot_12',None,None,MaterialInstanceConstant'/Game/ASSETS/ENVIRONMENT/PROPS/MATERIALS/MI_pots_rouge2.MI_pots_rouge2',MaterialInstanceConstant'/Game/ASSETS/ENVIRONMENT/PROPS/MATERIALS/MI_pots_vert2.MI_pots_vert2',DestructibleMesh'/Game/ASSETS/ENVIRONMENT/PROPS/DestructibleMeshes/DM_pot_12.DM_pot_12',2.000000,MaterialInstanceConstant'/Game/ASSETS/ENVIRONMENT/PROPS/MATERIALS/MI_pots_cassables_2.MI_pots_cassables_2'
223,Pot Cassé 1,Props,Mesh,Version Cassé du pot 1,TRUE,TRUE,FALSE,Texture2D'/Game/ASSETS/Tools/Icons/EI_M_Pot_Destroyed_1.EI_M_Pot_Destroyed_1',StaticMesh'/Game/ASSETS/ENVIRONMENT/PROPS/MESHES/M_Pot_Destroyed_1.M_Pot_Destroyed_1',None,None,MaterialInstanceConstant'/Game/ASSETS/ENVIRONMENT/PROPS/MATERIALS/MI_pots_rouge.MI_pots_rouge',MaterialInstanceConstant'/Game/ASSETS/ENVIRONMENT/PROPS/MATERIALS/MI_pots_vert.MI_pots_vert',None,2.000000,None
224,Pot Cassé 2,Props,Mesh,Version Cassé du pot 1,TRUE,TRUE,FALSE,Texture2D'/Game/ASSETS/Tools/Icons/EI_M_Pot_Destroyed_2.EI_M_Pot_Destroyed_2',StaticMesh'/Game/ASSETS/ENVIRONMENT/PROPS/MESHES/M_Pot_Destroyed_4.M_Pot_Destroyed_4',None,None,MaterialInstanceConstant'/Game/ASSETS/ENVIRONMENT/PROPS/MATERIALS/MI_pots_rouge.MI_pots_rouge',MaterialInstanceConstant'/Game/ASSETS/ENVIRONMENT/PROPS/MATERIALS/MI_pots_vert.MI_pots_vert',None,2.000000,None
225,Pots + Cranes,Props,BluePrint,,FALSE,FALSE,FALSE,Texture2D'/Game/ASSETS/Tools/Icons/EI_BP_Pots_Crane.EI_BP_Pots_Crane',None,BlueprintGeneratedClass'/Game/ASSETS/ENVIRONMENT/PROPS/PROPS_ACTORS/BluePrint/BP_Pots_Crane.BP_Pots_Crane_C',None,None,None,None,2.000000,None
226,Pots 01,Props,BluePrint,,FALSE,FALSE,FALSE,Texture2D'/Game/ASSETS/Tools/Icons/EI_BP_Pots_1.EI_BP_Pots_1',None,BlueprintGeneratedClass'/Game/ASSETS/ENVIRONMENT/PROPS/PROPS_ACTORS/BluePrint/BP_Pots_1.BP_Pots_1_C',None,None,None,None,2.000000,None
227,Pots Shabtis 1,Props,BluePrint,,FALSE,FALSE,FALSE,Texture2D'/Game/ASSETS/Tools/Icons/EI_BP_Pots_Shabtis_1.EI_BP_Pots_Shabtis_1',None,BlueprintGeneratedClass'/Game/ASSETS/ENVIRONMENT/PROPS/PROPS_ACTORS/BluePrint/BP_Pots_Shabtis_1.BP_Pots_Shabtis_1_C',None,None,None,None,2.000000,None
228,Random Object Spawner,Props Actor,BluePrint,,FALSE,FALSE,FALSE,Texture2D'/Game/ASSETS/Tools/Icons/EI_BP_Standard.EI_BP_Standard',None,BlueprintGeneratedClass'/Game/ASSETS/Tools/Blueprint/BP_RandomStaticMeshSpawner.BP_RandomStaticMeshSpawner_C',None,None,None,None,2.000000,None
229,Ratelier 1,Props,Mesh,,FALSE,FALSE,FALSE,Texture2D'/Game/ASSETS/Tools/Icons/EI_M_Ratelier_1.EI_M_Ratelier_1',StaticMesh'/Game/ASSETS/ENVIRONMENT/PROPS/MESHES/M_Ratelier_1.M_Ratelier_1',None,None,None,None,None,2.000000,None
230,Ratelier 2,Props,Mesh,,FALSE,FALSE,FALSE,Texture2D'/Game/ASSETS/Tools/Icons/EI_M_Ratelier_2.EI_M_Ratelier_2',StaticMesh'/Game/ASSETS/ENVIRONMENT/PROPS/MESHES/M_Ratelier_2.M_Ratelier_2',None,None,None,None,None,2.000000,None
231,Roche 01,Rocks,Mesh,,FALSE,FALSE,FALSE,Texture2D'/Game/ASSETS/Tools/Icons/EI_M_Roche_01.EI_M_Roche_01',StaticMesh'/Game/ASSETS/ENVIRONMENT/PROPS/MESHES/M_Rock_06.M_Rock_06',None,None,None,None,None,2.000000,None
232,Roche 01 BP,Rocks,BluePrint,,FALSE,FALSE,FALSE,Texture2D'/Game/ASSETS/Tools/Icons/EI_Roche_01.EI_Roche_01',None,BlueprintGeneratedClass'/Game/ASSETS/ENVIRONMENT/PROPS/PROPS_ACTORS/BluePrint/BP_Rocher_1.BP_Rocher_1_C',None,None,None,None,2.000000,None
233,Roche 02,Rocks,Mesh,,FALSE,FALSE,FALSE,Texture2D'/Game/ASSETS/Tools/Icons/EI_M_Roche_02.EI_M_Roche_02',StaticMesh'/Game/ASSETS/ENVIRONMENT/PROPS/MESHES/M_Rock_17.M_Rock_17',None,None,None,None,None,2.000000,None
234,Roche 02 BP,Rocks,BluePrint,,FALSE,FALSE,FALSE,Texture2D'/Game/ASSETS/Tools/Icons/EI_Roche_02.EI_Roche_02',None,BlueprintGeneratedClass'/Game/ASSETS/ENVIRONMENT/PROPS/PROPS_ACTORS/BluePrint/BP_Rocher_2.BP_Rocher_2_C',None,None,None,None,2.000000,None
235,Roche 03,Rocks,Mesh,,FALSE,FALSE,FALSE,Texture2D'/Game/ASSETS/Tools/Icons/EI_M_Roche_03.EI_M_Roche_03',StaticMesh'/Game/ASSETS/ENVIRONMENT/PROPS/MESHES/M_Rock_16.M_Rock_16',None,None,None,None,None,2.000000,None
236,Roche 03 BP,Rocks,BluePrint,,FALSE,FALSE,FALSE,Texture2D'/Game/ASSETS/Tools/Icons/EI_Roche_03.EI_Roche_03',None,BlueprintGeneratedClass'/Game/ASSETS/ENVIRONMENT/PROPS/PROPS_ACTORS/BluePrint/BP_Rocher_3.BP_Rocher_3_C',None,None,None,None,2.000000,None
237,Roche 04,Rocks,Mesh,,FALSE,FALSE,FALSE,Texture2D'/Game/ASSETS/Tools/Icons/EI_M_Roche_04.EI_M_Roche_04',StaticMesh'/Game/ASSETS/ENVIRONMENT/PROPS/MESHES/M_Rock_15.M_Rock_15',None,None,None,None,None,2.000000,None
238,Roche 04 BP,Rocks,BluePrint,,FALSE,FALSE,FALSE,Texture2D'/Game/ASSETS/Tools/Icons/EI_Roche_04.EI_Roche_04',None,BlueprintGeneratedClass'/Game/ASSETS/ENVIRONMENT/PROPS/PROPS_ACTORS/BluePrint/BP_Rocher_4.BP_Rocher_4_C',None,None,None,None,2.000000,None
239,Roche 05,Rocks,Mesh,,FALSE,FALSE,FALSE,Texture2D'/Game/ASSETS/Tools/Icons/EI_M_Roche_05.EI_M_Roche_05',StaticMesh'/Game/ASSETS/ENVIRONMENT/PROPS/MESHES/M_Rock_14.M_Rock_14',None,None,None,None,None,2.000000,None
240,Roche 06,Rocks,Mesh,,TRUE,FALSE,FALSE,Texture2D'/Game/ASSETS/Tools/Icons/EI_M_Roche_06.EI_M_Roche_06',StaticMesh'/Game/ASSETS/ENVIRONMENT/PROPS/MESHES/M_Rock_13.M_Rock_13',None,None,MaterialInstanceConstant'/Game/ASSETS/ENVIRONMENT/PROPS/MATERIALS/MI_Rocks_03.MI_Rocks_03',None,None,2.000000,None
241,Roche 07,Rocks,Mesh,,TRUE,FALSE,FALSE,Texture2D'/Game/ASSETS/Tools/Icons/EI_M_Roche_07.EI_M_Roche_07',StaticMesh'/Game/ASSETS/ENVIRONMENT/PROPS/MESHES/M_Rock_28.M_Rock_28',None,None,MaterialInstanceConstant'/Game/ASSETS/ENVIRONMENT/PROPS/MATERIALS/MI_Rocks_03.MI_Rocks_03',None,None,2.000000,None
242,Roche 08,Rocks,Mesh,,TRUE,FALSE,FALSE,Texture2D'/Game/ASSETS/Tools/Icons/EI_M_Roche_08.EI_M_Roche_08',StaticMesh'/Game/ASSETS/ENVIRONMENT/PROPS/MESHES/M_Rock_11.M_Rock_11',None,None,MaterialInstanceConstant'/Game/ASSETS/ENVIRONMENT/PROPS/MATERIALS/MI_Rocks_03.MI_Rocks_03',None,None,2.000000,None
243,Roche 09,Rocks,Mesh,,TRUE,FALSE,FALSE,Texture2D'/Game/ASSETS/Tools/Icons/EI_M_Roche_09.EI_M_Roche_09',StaticMesh'/Game/ASSETS/ENVIRONMENT/PROPS/MESHES/M_Rock_12.M_Rock_12',None,None,MaterialInstanceConstant'/Game/ASSETS/ENVIRONMENT/PROPS/MATERIALS/MI_Rocks_03.MI_Rocks_03',None,None,2.000000,None
244,Roche 10,Rocks,Mesh,,TRUE,FALSE,FALSE,Texture2D'/Game/ASSETS/Tools/Icons/EI_M_Roche_10.EI_M_Roche_10',StaticMesh'/Game/ASSETS/ENVIRONMENT/PROPS/MESHES/M_Rock_18.M_Rock_18',None,None,MaterialInstanceConstant'/Game/ASSETS/ENVIRONMENT/PROPS/MATERIALS/MI_Rocks_03.MI_Rocks_03',None,None,2.000000,None
245,Roche 11,Rocks,Mesh,,TRUE,FALSE,FALSE,Texture2D'/Game/ASSETS/Tools/Icons/EI_M_Roche_11.EI_M_Roche_11',StaticMesh'/Game/ASSETS/ENVIRONMENT/PROPS/MESHES/M_Rock_09.M_Rock_09',None,None,MaterialInstanceConstant'/Game/ASSETS/ENVIRONMENT/PROPS/MATERIALS/MI_Rocks_03.MI_Rocks_03',None,None,2.000000,None
246,Roche 12,Rocks,Mesh,,TRUE,FALSE,FALSE,Texture2D'/Game/ASSETS/Tools/Icons/EI_M_Roche_12.EI_M_Roche_12',StaticMesh'/Game/ASSETS/ENVIRONMENT/PROPS/MESHES/M_Rock_08.M_Rock_08',None,None,MaterialInstanceConstant'/Game/ASSETS/ENVIRONMENT/PROPS/MATERIALS/MI_Rocks_03.MI_Rocks_03',None,None,2.000000,None
247,Roche 13,Rocks,Mesh,,TRUE,FALSE,FALSE,Texture2D'/Game/ASSETS/Tools/Icons/EI_M_Roche_13.EI_M_Roche_13',StaticMesh'/Game/ASSETS/ENVIRONMENT/PROPS/MESHES/M_Rock_07.M_Rock_07',None,None,MaterialInstanceConstant'/Game/ASSETS/ENVIRONMENT/PROPS/MATERIALS/MI_Rocks_03.MI_Rocks_03',None,None,2.000000,None
248,Roche 14,Rocks,Mesh,,TRUE,FALSE,FALSE,Texture2D'/Game/ASSETS/Tools/Icons/EI_M_Roche_14.EI_M_Roche_14',StaticMesh'/Game/ASSETS/ENVIRONMENT/PROPS/MESHES/M_Rock_29.M_Rock_29',None,None,MaterialInstanceConstant'/Game/ASSETS/ENVIRONMENT/PROPS/MATERIALS/MI_Rocks_03.MI_Rocks_03',None,None,2.000000,None
249,Roche 15,Rocks,Mesh,,TRUE,FALSE,FALSE,Texture2D'/Game/ASSETS/Tools/Icons/EI_M_Roche_15.EI_M_Roche_15',StaticMesh'/Game/ASSETS/ENVIRONMENT/PROPS/MESHES/M_Rock_30.M_Rock_30',None,None,MaterialInstanceConstant'/Game/ASSETS/ENVIRONMENT/PROPS/MATERIALS/MI_Rocks_03.MI_Rocks_03',None,None,2.000000,None
250,Roche 16,Rocks,Mesh,,TRUE,FALSE,FALSE,Texture2D'/Game/ASSETS/Tools/Icons/EI_M_Roche_16.EI_M_Roche_16',StaticMesh'/Game/ASSETS/ENVIRONMENT/PROPS/MESHES/M_Rock_10.M_Rock_10',None,None,MaterialInstanceConstant'/Game/ASSETS/ENVIRONMENT/PROPS/MATERIALS/MI_Rocks_03.MI_Rocks_03',None,None,2.000000,None
251,Roche 17,Rocks,Mesh,,TRUE,FALSE,FALSE,Texture2D'/Game/ASSETS/Tools/Icons/EI_M_Roche_17.EI_M_Roche_17',StaticMesh'/Game/ASSETS/ENVIRONMENT/PROPS/MESHES/M_Rock_27.M_Rock_27',None,None,MaterialInstanceConstant'/Game/ASSETS/ENVIRONMENT/PROPS/MATERIALS/MI_Rocks_03.MI_Rocks_03',None,None,2.000000,None
252,Roche 18,Rocks,Mesh,,TRUE,FALSE,FALSE,Texture2D'/Game/ASSETS/Tools/Icons/EI_M_Roche_18.EI_M_Roche_18',StaticMesh'/Game/ASSETS/ENVIRONMENT/PROPS/MESHES/M_Rock_26.M_Rock_26',None,None,MaterialInstanceConstant'/Game/ASSETS/ENVIRONMENT/PROPS/MATERIALS/MI_Rocks_03.MI_Rocks_03',None,None,2.000000,None
253,Roche 19,Rocks,Mesh,,TRUE,FALSE,FALSE,Texture2D'/Game/ASSETS/Tools/Icons/EI_M_Rcohe_19.EI_M_Rcohe_19',StaticMesh'/Game/ASSETS/ENVIRONMENT/PROPS/MESHES/M_Rock_25.M_Rock_25',None,None,MaterialInstanceConstant'/Game/ASSETS/ENVIRONMENT/PROPS/MATERIALS/MI_Rocks_03.MI_Rocks_03',None,None,2.000000,None
254,Roche 20,Rocks,Mesh,,TRUE,FALSE,FALSE,Texture2D'/Game/ASSETS/Tools/Icons/EI_M_Roche_20.EI_M_Roche_20',StaticMesh'/Game/ASSETS/ENVIRONMENT/PROPS/MESHES/M_Rock_24.M_Rock_24',None,None,MaterialInstanceConstant'/Game/ASSETS/ENVIRONMENT/PROPS/MATERIALS/MI_Rocks_03.MI_Rocks_03',None,None,2.000000,None
255,Roche 21,Rocks,Mesh,,TRUE,FALSE,FALSE,Texture2D'/Game/ASSETS/Tools/Icons/EI_M_Roche_21.EI_M_Roche_21',StaticMesh'/Game/ASSETS/ENVIRONMENT/PROPS/MESHES/M_Rock_23.M_Rock_23',None,None,MaterialInstanceConstant'/Game/ASSETS/ENVIRONMENT/PROPS/MATERIALS/MI_Rocks_03.MI_Rocks_03',None,None,2.000000,None
256,Roche 22,Rocks,Mesh,,TRUE,FALSE,FALSE,Texture2D'/Game/ASSETS/Tools/Icons/EI_M_Roche_22.EI_M_Roche_22',StaticMesh'/Game/ASSETS/ENVIRONMENT/PROPS/MESHES/M_Rock_26.M_Rock_26',None,None,MaterialInstanceConstant'/Game/ASSETS/ENVIRONMENT/PROPS/MATERIALS/MI_Rocks_03.MI_Rocks_03',None,None,2.000000,None
257,Roche 23,Rocks,Mesh,,TRUE,FALSE,FALSE,Texture2D'/Game/ASSETS/Tools/Icons/EI_M_Roche_23.EI_M_Roche_23',StaticMesh'/Game/ASSETS/ENVIRONMENT/PROPS/MESHES/M_Rock_1.M_Rock_1',None,None,MaterialInstanceConstant'/Game/ASSETS/ENVIRONMENT/PROPS/MATERIALS/MI_Rocks_03.MI_Rocks_03',None,None,2.000000,None
258,Roche 24,Rocks,Mesh,,TRUE,FALSE,FALSE,Texture2D'/Game/ASSETS/Tools/Icons/EI_M_Roche_24.EI_M_Roche_24',StaticMesh'/Game/ASSETS/ENVIRONMENT/PROPS/MESHES/M_Rock_19.M_Rock_19',None,None,MaterialInstanceConstant'/Game/ASSETS/ENVIRONMENT/PROPS/MATERIALS/MI_Rocks_03.MI_Rocks_03',None,None,2.000000,None
259,Roche 25,Rocks,Mesh,,TRUE,FALSE,FALSE,Texture2D'/Game/ASSETS/Tools/Icons/EI_M_Roche_25.EI_M_Roche_25',StaticMesh'/Game/ASSETS/ENVIRONMENT/PROPS/MESHES/M_Rock_4.M_Rock_4',None,None,MaterialInstanceConstant'/Game/ASSETS/ENVIRONMENT/PROPS/MATERIALS/MI_Rocks_03.MI_Rocks_03',None,None,2.000000,None
260,Roche 26,Rocks,Mesh,,TRUE,FALSE,FALSE,Texture2D'/Game/ASSETS/Tools/Icons/EI_M_Roche_26.EI_M_Roche_26',StaticMesh'/Game/ASSETS/ENVIRONMENT/PROPS/MESHES/M_Rock_1.M_Rock_1',None,None,MaterialInstanceConstant'/Game/ASSETS/ENVIRONMENT/PROPS/MATERIALS/MI_Rocks_03.MI_Rocks_03',None,None,2.000000,None
261,Roche 27,Rocks,Mesh,,TRUE,FALSE,FALSE,Texture2D'/Game/ASSETS/Tools/Icons/EI_M_Roche_27.EI_M_Roche_27',StaticMesh'/Game/ASSETS/ENVIRONMENT/PROPS/MESHES/M_Rock_3.M_Rock_3',None,None,MaterialInstanceConstant'/Game/ASSETS/ENVIRONMENT/PROPS/MATERIALS/MI_Rocks_03.MI_Rocks_03',None,None,2.000000,None
262,Roche 28,Rocks,Mesh,,TRUE,FALSE,FALSE,Texture2D'/Game/ASSETS/Tools/Icons/EI_M_Roche_28.EI_M_Roche_28',StaticMesh'/Game/ASSETS/ENVIRONMENT/PROPS/MESHES/M_Rock_20.M_Rock_20',None,None,MaterialInstanceConstant'/Game/ASSETS/ENVIRONMENT/PROPS/MATERIALS/MI_Rocks_03.MI_Rocks_03',None,None,2.000000,None
263,Roche 29,Rocks,Mesh,,TRUE,FALSE,FALSE,Texture2D'/Game/ASSETS/Tools/Icons/EI_M_Roche_29.EI_M_Roche_29',StaticMesh'/Game/ASSETS/ENVIRONMENT/PROPS/MESHES/M_Rock_5.M_Rock_5',None,None,MaterialInstanceConstant'/Game/ASSETS/ENVIRONMENT/PROPS/MATERIALS/MI_Rocks_03.MI_Rocks_03',None,None,2.000000,None
264,Roche 30,Rocks,Mesh,,TRUE,FALSE,FALSE,Texture2D'/Game/ASSETS/Tools/Icons/EI_M_Roche_30.EI_M_Roche_30',StaticMesh'/Game/ASSETS/ENVIRONMENT/PROPS/MESHES/M_Rock_2.M_Rock_2',None,None,MaterialInstanceConstant'/Game/ASSETS/ENVIRONMENT/PROPS/MATERIALS/MI_Rocks_03.MI_Rocks_03',None,None,2.000000,None
265,Rocher 05,Rocks,BluePrint,,FALSE,FALSE,FALSE,Texture2D'/Game/ASSETS/Tools/Icons/EI_BP_Rocher_5.EI_BP_Rocher_5',None,BlueprintGeneratedClass'/Game/ASSETS/ENVIRONMENT/PROPS/PROPS_ACTORS/BluePrint/BP_Rocher_5.BP_Rocher_5_C',None,None,None,None,2.000000,None
266,Rocher 06,Rocks,BluePrint,,FALSE,FALSE,FALSE,Texture2D'/Game/ASSETS/Tools/Icons/EI_BP_Rocher_6.EI_BP_Rocher_6',None,BlueprintGeneratedClass'/Game/ASSETS/ENVIRONMENT/PROPS/PROPS_ACTORS/BluePrint/BP_Rocher_7.BP_Rocher_7_C',None,None,None,None,2.000000,None
267,Rocher 07,Rocks,BluePrint,,FALSE,FALSE,FALSE,Texture2D'/Game/ASSETS/Tools/Icons/EI_BP_Rocher_7.EI_BP_Rocher_7',None,BlueprintGeneratedClass'/Game/ASSETS/ENVIRONMENT/PROPS/PROPS_ACTORS/BluePrint/BP_Rocher_6.BP_Rocher_6_C',None,None,None,None,2.000000,None
268,Rocher 8,Rocks,BluePrint,,FALSE,FALSE,FALSE,Texture2D'/Game/ASSETS/Tools/Icons/EI_BP_Rocher_08.EI_BP_Rocher_08',None,BlueprintGeneratedClass'/Game/ASSETS/ENVIRONMENT/PROPS/PROPS_ACTORS/BluePrint/BP_Rocher_8.BP_Rocher_8_C',None,None,None,None,2.000000,None
269,Rose des Sables 01,Rocks,Mesh,,TRUE,FALSE,FALSE,Texture2D'/Game/ASSETS/Tools/Icons/EI_M_Rose_Des_Sables_01.EI_M_Rose_Des_Sables_01',StaticMesh'/Game/ASSETS/ENVIRONMENT/PROPS/MESHES/M_RoseDesSables_01.M_RoseDesSables_01',None,None,MaterialInstanceConstant'/Game/ASSETS/ENVIRONMENT/PROPS/MATERIALS/MI_RoseDesSables_small.MI_RoseDesSables_small',None,None,2.000000,None
270,Rose des Sables 02,Rocks,Mesh,,TRUE,FALSE,FALSE,Texture2D'/Game/ASSETS/Tools/Icons/EI_M_Rose_Des_Sables_02.EI_M_Rose_Des_Sables_02',StaticMesh'/Game/ASSETS/ENVIRONMENT/PROPS/MESHES/M_RoseDesSables_02.M_RoseDesSables_02',None,None,MaterialInstanceConstant'/Game/ASSETS/ENVIRONMENT/PROPS/MATERIALS/MI_RoseDesSables_small.MI_RoseDesSables_small',None,None,2.000000,None
271,Rose des Sables 03,Rocks,Mesh,,TRUE,FALSE,FALSE,Texture2D'/Game/ASSETS/Tools/Icons/EI_M_Rose_Des_Sables_03.EI_M_Rose_Des_Sables_03',StaticMesh'/Game/ASSETS/ENVIRONMENT/PROPS/MESHES/M_RoseDesSables_03.M_RoseDesSables_03',None,None,MaterialInstanceConstant'/Game/ASSETS/ENVIRONMENT/PROPS/MATERIALS/MI_RoseDesSables_small.MI_RoseDesSables_small',None,None,2.000000,None
272,Roses des Sables 01,Rocks,BluePrint,,FALSE,FALSE,FALSE,Texture2D'/Game/ASSETS/Tools/Icons/EI_BP_RosesDesSables_1.EI_BP_RosesDesSables_1',None,BlueprintGeneratedClass'/Game/ASSETS/ENVIRONMENT/PROPS/PROPS_ACTORS/BluePrint/BP_RosesDesSables_1.BP_RosesDesSables_1_C',None,None,None,None,2.000000,None
273,Seth Nark,Character,BluePrint,,FALSE,FALSE,FALSE,None,None,BlueprintGeneratedClass'/Game/Dev/StoryMode/Actor/Pawn/Ennemy/SethNark/SethNark_Pawn.SethNark_Pawn_C',None,None,None,None,2.000000,None
274,Seth Ras,Character,BluePrint,,FALSE,FALSE,FALSE,None,None,BlueprintGeneratedClass'/Game/Dev/StoryMode/Actor/Pawn/Ennemy/SethRas/SethRas_Pawn.SethRas_Pawn_C',None,None,None,None,2.000000,None
275,Shabti 1,Props,Mesh,,TRUE,FALSE,FALSE,Texture2D'/Game/ASSETS/Tools/Icons/EI_M_Shabti_1.EI_M_Shabti_1',StaticMesh'/Game/ASSETS/ENVIRONMENT/PROPS/MESHES/M_Shabtis_1.M_Shabtis_1',None,None,MaterialInstanceConstant'/Game/ASSETS/ENVIRONMENT/PROPS/MATERIALS/MI_Shabti_V2.MI_Shabti_V2',None,None,2.000000,None
276,Shabti 10,Props,Mesh,,TRUE,FALSE,FALSE,Texture2D'/Game/ASSETS/Tools/Icons/EI_M_Shabti_10.EI_M_Shabti_10',StaticMesh'/Game/ASSETS/ENVIRONMENT/PROPS/MESHES/M_Shabtis_10.M_Shabtis_10',None,None,MaterialInstanceConstant'/Game/ASSETS/ENVIRONMENT/PROPS/MATERIALS/MI_Shabti_V2.MI_Shabti_V2',None,None,2.000000,None
277,Shabti 11,Props,Mesh,,TRUE,FALSE,FALSE,Texture2D'/Game/ASSETS/Tools/Icons/EI_M_Shabti_11.EI_M_Shabti_11',StaticMesh'/Game/ASSETS/ENVIRONMENT/PROPS/MESHES/M_Shabtis_11.M_Shabtis_11',None,None,MaterialInstanceConstant'/Game/ASSETS/ENVIRONMENT/PROPS/MATERIALS/MI_Shabti_V2.MI_Shabti_V2',None,None,2.000000,None
278,Shabti 12,Props,Mesh,,TRUE,FALSE,FALSE,Texture2D'/Game/ASSETS/Tools/Icons/EI_M_Shabti_12.EI_M_Shabti_12',StaticMesh'/Game/ASSETS/ENVIRONMENT/PROPS/MESHES/M_Shabtis_12.M_Shabtis_12',None,None,MaterialInstanceConstant'/Game/ASSETS/ENVIRONMENT/PROPS/MATERIALS/MI_Shabti_V2.MI_Shabti_V2',None,None,2.000000,None
279,Shabti 2,Props,Mesh,,TRUE,FALSE,FALSE,Texture2D'/Game/ASSETS/Tools/Icons/EI_M_Shabti_2.EI_M_Shabti_2',StaticMesh'/Game/ASSETS/ENVIRONMENT/PROPS/MESHES/M_Shabtis_2.M_Shabtis_2',None,None,MaterialInstanceConstant'/Game/ASSETS/ENVIRONMENT/PROPS/MATERIALS/MI_Shabti_V2.MI_Shabti_V2',None,None,2.000000,None
280,Shabti 3,Props,Mesh,,TRUE,FALSE,FALSE,Texture2D'/Game/ASSETS/Tools/Icons/EI_M_Shabti_3.EI_M_Shabti_3',StaticMesh'/Game/ASSETS/ENVIRONMENT/PROPS/MESHES/M_Shabtis_3.M_Shabtis_3',None,None,MaterialInstanceConstant'/Game/ASSETS/ENVIRONMENT/PROPS/MATERIALS/MI_Shabti_V2.MI_Shabti_V2',None,None,2.000000,None
281,Shabti 4,Props,Mesh,,TRUE,FALSE,FALSE,Texture2D'/Game/ASSETS/Tools/Icons/EI_M_Shabti_4.EI_M_Shabti_4',StaticMesh'/Game/ASSETS/ENVIRONMENT/PROPS/MESHES/M_Shabtis_4.M_Shabtis_4',None,None,MaterialInstanceConstant'/Game/ASSETS/ENVIRONMENT/PROPS/MATERIALS/MI_Shabti_V2.MI_Shabti_V2',None,None,2.000000,None
282,Shabti 5,Props,Mesh,,TRUE,FALSE,FALSE,Texture2D'/Game/ASSETS/Tools/Icons/EI_M_Shabti_5.EI_M_Shabti_5',StaticMesh'/Game/ASSETS/ENVIRONMENT/PROPS/MESHES/M_Shabtis_5.M_Shabtis_5',None,None,MaterialInstanceConstant'/Game/ASSETS/ENVIRONMENT/PROPS/MATERIALS/MI_Shabti_V2.MI_Shabti_V2',None,None,2.000000,None
283,Shabti 6,Props,Mesh,,TRUE,FALSE,FALSE,Texture2D'/Game/ASSETS/Tools/Icons/EI_M_Shabti_6.EI_M_Shabti_6',StaticMesh'/Game/ASSETS/ENVIRONMENT/PROPS/MESHES/M_Shabtis_6.M_Shabtis_6',None,None,MaterialInstanceConstant'/Game/ASSETS/ENVIRONMENT/PROPS/MATERIALS/MI_Shabti_V2.MI_Shabti_V2',None,None,2.000000,None
284,Shabti 7,Props,Mesh,,TRUE,FALSE,FALSE,Texture2D'/Game/ASSETS/Tools/Icons/EI_M_Shabti_7.EI_M_Shabti_7',StaticMesh'/Game/ASSETS/ENVIRONMENT/PROPS/MESHES/M_Shabtis_7.M_Shabtis_7',None,None,MaterialInstanceConstant'/Game/ASSETS/ENVIRONMENT/PROPS/MATERIALS/MI_Shabti_V2.MI_Shabti_V2',None,None,2.000000,None
285,Shabti 8,Props,Mesh,,TRUE,FALSE,FALSE,Texture2D'/Game/ASSETS/Tools/Icons/EI_M_Shabti_8.EI_M_Shabti_8',StaticMesh'/Game/ASSETS/ENVIRONMENT/PROPS/MESHES/M_Shabtis_8.M_Shabtis_8',None,None,MaterialInstanceConstant'/Game/ASSETS/ENVIRONMENT/PROPS/MATERIALS/MI_Shabti_V2.MI_Shabti_V2',None,None,2.000000,None
286,Shabti 9,Props,Mesh,,TRUE,FALSE,FALSE,Texture2D'/Game/ASSETS/Tools/Icons/EI_M_Shabti_9.EI_M_Shabti_9',StaticMesh'/Game/ASSETS/ENVIRONMENT/PROPS/MESHES/M_Shabtis_9.M_Shabtis_9',None,None,MaterialInstanceConstant'/Game/ASSETS/ENVIRONMENT/PROPS/MATERIALS/MI_Shabti_V2.MI_Shabti_V2',None,None,2.000000,None
287,Shield 1,Props,Mesh,,FALSE,FALSE,FALSE,Texture2D'/Game/ASSETS/Tools/Icons/EI_M_Shield_1.EI_M_Shield_1',StaticMesh'/Game/ASSETS/ENVIRONMENT/PROPS/MESHES/M_Shield_1.M_Shield_1',None,None,None,None,None,2.000000,None
288,Shield 2,Props,Mesh,,FALSE,FALSE,FALSE,Texture2D'/Game/ASSETS/Tools/Icons/EI_M_Shield_2.EI_M_Shield_2',StaticMesh'/Game/ASSETS/ENVIRONMENT/PROPS/MESHES/M_Shield_2.M_Shield_2',None,None,None,None,None,2.000000,None
289,Shield 3,Props,Mesh,,FALSE,FALSE,FALSE,Texture2D'/Game/ASSETS/Tools/Icons/EI_M_Shield_3.EI_M_Shield_3',StaticMesh'/Game/ASSETS/ENVIRONMENT/PROPS/MESHES/M_Shield_3.M_Shield_3',None,None,None,None,None,2.000000,None
290,Shield attach,Props,Mesh,,FALSE,FALSE,FALSE,Texture2D'/Game/ASSETS/Tools/Icons/EI_M_Shield_Attach.EI_M_Shield_Attach',StaticMesh'/Game/ASSETS/ENVIRONMENT/PROPS/MESHES/M_Shield_Attach.M_Shield_Attach',None,None,None,None,None,2.000000,None
291,Small Blob ground 1,Ground Surface,Mesh,,FALSE,FALSE,FALSE,Texture2D'/Game/ASSETS/Tools/Icons/EI_M_Big_Blob_small_ground_1.EI_M_Big_Blob_small_ground_1',StaticMesh'/Game/ASSETS/ENVIRONMENT/PROPS/MESHES/M_Blob_small_ground_1.M_Blob_small_ground_1',None,None,None,None,None,2.000000,None
292,Small Blob ground 2,Ground Surface,Mesh,,FALSE,FALSE,FALSE,Texture2D'/Game/ASSETS/Tools/Icons/EI_M_Big_Blob_small_ground_2.EI_M_Big_Blob_small_ground_2',StaticMesh'/Game/ASSETS/ENVIRONMENT/PROPS/MESHES/M_Blob_small_ground_2.M_Blob_small_ground_2',None,None,None,None,None,2.000000,None
293,Small Blob Wall,Wall Surface,Mesh,,FALSE,FALSE,FALSE,Texture2D'/Game/ASSETS/Tools/Icons/EI_M_Small_blob_wall.EI_M_Small_blob_wall',StaticMesh'/Game/ASSETS/ENVIRONMENT/PROPS/MESHES/M_Small_blob_wall.M_Small_blob_wall',None,None,None,None,None,2.000000,None
294,Spear 1,Props,Mesh,,FALSE,FALSE,FALSE,Texture2D'/Game/ASSETS/Tools/Icons/EI_M_Spear_1.EI_M_Spear_1',StaticMesh'/Game/ASSETS/ENVIRONMENT/PROPS/MESHES/M_spear_1.M_spear_1',None,None,None,None,None,2.000000,None
295,Spear 2,Props,Mesh,,FALSE,FALSE,FALSE,Texture2D'/Game/ASSETS/Tools/Icons/EI_M_Spear_2.EI_M_Spear_2',StaticMesh'/Game/ASSETS/ENVIRONMENT/PROPS/MESHES/M_spear_2.M_spear_2',None,None,None,None,None,2.000000,None
296,Spline Damné BP,Props Actor,BluePrint,,FALSE,FALSE,FALSE,Texture2D'/Game/ASSETS/Tools/Icons/EI_BP_Spline_Damne.EI_BP_Spline_Damne',None,BlueprintGeneratedClass'/Game/ASSETS/Tools/Blueprint/BP_Spline_Damne.BP_Spline_Damne_C',None,None,None,None,2.000000,None
297,Statue Baal,Props Actor,BluePrint,,FALSE,FALSE,FALSE,None,None,BlueprintGeneratedClass'/Game/ASSETS/ENVIRONMENT/PROPS/PROPS_ACTORS/BluePrint/M_Baal_statue.M_Baal_statue_C',None,None,None,None,2.000000,None
298,Sword 1,Props,Mesh,,FALSE,FALSE,FALSE,Texture2D'/Game/ASSETS/Tools/Icons/EI_M_Sword_1.EI_M_Sword_1',StaticMesh'/Game/ASSETS/ENVIRONMENT/PROPS/MESHES/M_sword_1.M_sword_1',None,None,None,None,None,2.000000,None
299,Sword 2,Props,Mesh,,FALSE,FALSE,FALSE,Texture2D'/Game/ASSETS/Tools/Icons/EI_M_Sword_2.EI_M_Sword_2',StaticMesh'/Game/ASSETS/ENVIRONMENT/PROPS/MESHES/M_sword_2.M_sword_2',None,None,None,None,None,2.000000,None
300,Sword 3,Props,Mesh,,FALSE,FALSE,FALSE,Texture2D'/Game/ASSETS/Tools/Icons/EI_M_Sword_3.EI_M_Sword_3',StaticMesh'/Game/ASSETS/ENVIRONMENT/PROPS/MESHES/M_sword_3.M_sword_3',None,None,None,None,None,2.000000,None
301,Sword 4,Props,Mesh,,FALSE,FALSE,FALSE,Texture2D'/Game/ASSETS/Tools/Icons/EI_M_Sword_4.EI_M_Sword_4',StaticMesh'/Game/ASSETS/ENVIRONMENT/PROPS/MESHES/M_sword_4.M_sword_4',None,None,None,None,None,2.000000,None
302,Table 1,Props,Mesh,,FALSE,FALSE,FALSE,None,StaticMesh'/Game/ASSETS/ENVIRONMENT/PROPS/MESHES/M_Table_01.M_Table_01',None,None,None,None,None,2.000000,None
303,Table 2,Props,Mesh,,FALSE,FALSE,FALSE,None,StaticMesh'/Game/ASSETS/ENVIRONMENT/PROPS/MESHES/M_Table_02.M_Table_02',None,None,None,None,None,2.000000,None
304,Table 3,Props,Mesh,,FALSE,FALSE,FALSE,None,StaticMesh'/Game/ASSETS/ENVIRONMENT/PROPS/MESHES/M_Table_03.M_Table_03',None,None,None,None,None,2.000000,None
305,Table 4,Props,Mesh,,FALSE,FALSE,FALSE,None,StaticMesh'/Game/ASSETS/ENVIRONMENT/PROPS/MESHES/M_Table_04.M_Table_04',None,None,None,None,None,2.000000,None
306,Table 5,Props,Mesh,,FALSE,FALSE,FALSE,None,StaticMesh'/Game/ASSETS/ENVIRONMENT/PROPS/MESHES/M_Table_05.M_Table_05',None,None,None,None,None,2.000000,None
307,Tile,Game Object,BluePrint,,FALSE,FALSE,FALSE,None,None,BlueprintGeneratedClass'/Game/Dev/StoryMode/Actor/Actor/PuzzleActor/Tile_BP.Tile_BP_C',None,None,None,None,2.000000,None
308,Torche Crystal,FX,BluePrint,,FALSE,FALSE,FALSE,Texture2D'/Game/ASSETS/Tools/Icons/EI_BP_TCrystal1.EI_BP_TCrystal1',None,BlueprintGeneratedClass'/Game/ASSETS/ENVIRONMENT/PROPS/PROPS_ACTORS/BluePrint/BP_TorcheCrystal_1.BP_TorcheCrystal_1_C',None,None,None,None,2.000000,None
309,Torche Crystal 2,FX,BluePrint,,FALSE,FALSE,FALSE,Texture2D'/Game/ASSETS/Tools/Icons/EI_BP_TCrystal2.EI_BP_TCrystal2',None,BlueprintGeneratedClass'/Game/ASSETS/ENVIRONMENT/PROPS/PROPS_ACTORS/BluePrint/BP_TorcheCrystal_2.BP_TorcheCrystal_2_C',None,None,None,None,2.000000,None
310,Torche Feu 1,FX,BluePrint,,FALSE,FALSE,FALSE,Texture2D'/Game/ASSETS/Tools/Icons/EI_BP_TFeu1.EI_BP_TFeu1',None,BlueprintGeneratedClass'/Game/ASSETS/ENVIRONMENT/PROPS/PROPS_ACTORS/BluePrint/BP_TorcheFeu_1.BP_TorcheFeu_1_C',None,None,None,None,2.000000,None
311,Torche Feu 2,FX,BluePrint,,FALSE,FALSE,FALSE,Texture2D'/Game/ASSETS/Tools/Icons/EI_BP_TFeu2.EI_BP_TFeu2',None,BlueprintGeneratedClass'/Game/ASSETS/ENVIRONMENT/PROPS/PROPS_ACTORS/BluePrint/BP_TorcheFeu_2.BP_TorcheFeu_2_C',None,None,None,None,2.000000,None
312,tout_de_guet,Props,BluePrint,,FALSE,FALSE,FALSE,Texture2D'/Game/ASSETS/Tools/Icons/EI_BP_tour_de_guet.EI_BP_tour_de_guet',None,BlueprintGeneratedClass'/Game/ASSETS/ENVIRONMENT/PROPS/PROPS_ACTORS/BluePrint/BP_tour_de_guet.BP_tour_de_guet_C',None,None,None,None,2.000000,None